user.okepka.data12_8TeV.00209909.physics_Egamma.NTUP_SMWZ.r4065_p1278_p1328_p1329_tid01122522_00.PrgSkim.v12/
user.okepka.data12_8TeV.00205010.physics_Egamma.NTUP_SMWZ.r4065_p1278_p1328_p1329_tid01122129_00.PrgSkim.v12/
user.okepka.data12_8TeV.00203027.physics_Egamma.NTUP_SMWZ.r4065_p1278_p1328_p1329_tid01122072_00.PrgSkim.v12/
user.okepka.data12_8TeV.00207589.physics_Egamma.NTUP_SMWZ.r4065_p1278_p1328_p1329_tid01122362_00.PrgSkim.v12/
user.okepka.data12_8TeV.00204853.physics_Egamma.NTUP_SMWZ.r4065_p1278_p1328_p1329_tid01122122_00.PrgSkim.v12/
user.okepka.data12_8TeV.00207528.physics_Egamma.NTUP_SMWZ.r4065_p1278_p1328_p1329_tid01122358_00.PrgSkim.v12/
user.okepka.data12_8TeV.00211902.physics_Egamma.NTUP_SMWZ.r4065_p1278_p1328_p1329_tid01122589_00.PrgSkim.v12/
user.okepka.data12_8TeV.00209183.physics_Egamma.NTUP_SMWZ.r4065_p1278_p1328_p1329_tid01122503_00.PrgSkim.v12/
user.okepka.data12_8TeV.00204976.physics_Egamma.NTUP_SMWZ.r4065_p1278_p1328_p1329_tid01122128_00.PrgSkim.v12/
user.okepka.data12_8TeV.00201383.physics_Egamma.NTUP_SMWZ.r4644_p1517_p1328_p1329_tid01433385_00.PrgSkim.v12/
user.okepka.data12_8TeV.00203277.physics_Egamma.NTUP_SMWZ.r4065_p1278_p1328_p1329_tid01122079_00.PrgSkim.v12/
user.okepka.data12_8TeV.00204857.physics_Egamma.NTUP_SMWZ.r4065_p1278_p1328_p1329_tid01122123_00.PrgSkim.v12/
user.okepka.data12_8TeV.00203336.physics_Egamma.NTUP_SMWZ.r4065_p1278_p1328_p1329_tid01122081_00.PrgSkim.v12/
user.okepka.data12_8TeV.00206299.physics_Egamma.NTUP_SMWZ.r4065_p1278_p1328_p1329_tid01122280_00.PrgSkim.v12/
user.okepka.data12_8TeV.00204955.physics_Egamma.NTUP_SMWZ.r4065_p1278_p1328_p1329_tid01122127_00.PrgSkim.v12/
user.okepka.data12_8TeV.00204071.physics_Egamma.NTUP_SMWZ.r4065_p1278_p1328_p1329_tid01122103_00.PrgSkim.v12/
user.okepka.data12_8TeV.00205016.physics_Egamma.NTUP_SMWZ.r4065_p1278_p1328_p1329_tid01122130_00.PrgSkim.v12/
user.okepka.data12_8TeV.00203876.physics_Egamma.NTUP_SMWZ.r4065_p1278_p1328_p1329_tid01122099_00.PrgSkim.v12/
user.okepka.data12_8TeV.00214388.physics_Egamma.NTUP_SMWZ.f486_m1255_p1328_p1329_tid01128225_00.PrgSkim.v12/
user.okepka.data12_8TeV.00203760.physics_Egamma.NTUP_SMWZ.r4065_p1278_p1328_p1329_tid01122095_00.PrgSkim.v12/
user.okepka.data12_8TeV.00213640.physics_Egamma.NTUP_SMWZ.f482_m1250_p1328_p1329_tid01128180_00.PrgSkim.v12/
user.okepka.data12_8TeV.00207046.physics_Egamma.NTUP_SMWZ.r4065_p1278_p1328_p1329_tid01122293_00.PrgSkim.v12/
user.okepka.data12_8TeV.00214176.physics_Egamma.NTUP_SMWZ.f486_m1255_p1328_p1329_tid01128223_00.PrgSkim.v12/
user.okepka.data12_8TeV.00205112.physics_Egamma.NTUP_SMWZ.r4065_p1278_p1328_p1329_tid01122134_00.PrgSkim.v12/
user.okepka.data12_8TeV.00203934.physics_Egamma.NTUP_SMWZ.r4065_p1278_p1328_p1329_tid01122100_00.PrgSkim.v12/
user.okepka.data12_8TeV.00207532.physics_Egamma.NTUP_SMWZ.r4065_p1278_p1328_p1329_tid01122360_00.PrgSkim.v12/
user.okepka.data12_8TeV.00209353.physics_Egamma.NTUP_SMWZ.r4065_p1278_p1328_p1329_tid01122508_00.PrgSkim.v12/
user.okepka.data12_8TeV.00201138.physics_Egamma.NTUP_SMWZ.r4644_p1517_p1328_p1329_tid01420917_00.PrgSkim.v12/
user.okepka.data12_8TeV.00201191.physics_Egamma.NTUP_SMWZ.r4644_p1517_p1328_p1329_tid01420919_00.PrgSkim.v12/
user.okepka.data12_8TeV.00207929.physics_Egamma.NTUP_SMWZ.r4065_p1278_p1328_p1329_tid01122373_00.PrgSkim.v12/
user.okepka.data12_8TeV.00200804.physics_Egamma.NTUP_SMWZ.r4644_p1517_p1328_p1329_tid01433362_00.PrgSkim.v12/
user.okepka.data12_8TeV.00206497.physics_Egamma.NTUP_SMWZ.r4065_p1278_p1328_p1329_tid01122285_00.PrgSkim.v12/
user.okepka.data12_8TeV.00215571.physics_Egamma.NTUP_SMWZ.f495_m1266_p1328_p1329_tid01128301_00.PrgSkim.v12/
user.okepka.data12_8TeV.00201280.physics_Egamma.NTUP_SMWZ.r4644_p1517_p1328_p1329_tid01420922_00.PrgSkim.v12/
user.okepka.data12_8TeV.00212687.physics_Egamma.NTUP_SMWZ.r4065_p1278_p1328_p1329_tid01122636_00.PrgSkim.v12/
user.okepka.data12_8TeV.00214216.physics_Egamma.NTUP_SMWZ.f486_m1255_p1328_p1329_tid01128224_00.PrgSkim.v12/
user.okepka.data12_8TeV.00204025.physics_Egamma.NTUP_SMWZ.r4065_p1278_p1328_p1329_tid01122101_00.PrgSkim.v12/
user.okepka.data12_8TeV.00215643.physics_Egamma.NTUP_SMWZ.f495_m1266_p1328_p1329_tid01128303_00.PrgSkim.v12/
user.okepka.data12_8TeV.00207696.physics_Egamma.NTUP_SMWZ.r4065_p1278_p1328_p1329_tid01122365_00.PrgSkim.v12/
user.okepka.data12_8TeV.00204796.physics_Egamma.NTUP_SMWZ.r4065_p1278_p1328_p1329_tid01122121_00.PrgSkim.v12/
user.okepka.data12_8TeV.00209550.physics_Egamma.NTUP_SMWZ.r4065_p1278_p1328_p1329_tid01122510_00.PrgSkim.v12/
user.okepka.data12_8TeV.00213431.physics_Egamma.NTUP_SMWZ.f482_m1238_p1328_p1329_tid01128174_00.PrgSkim.v12/
user.okepka.data12_8TeV.00210302.physics_Egamma.NTUP_SMWZ.r4065_p1278_p1328_p1329_tid01122526_00.PrgSkim.v12/
user.okepka.data12_8TeV.00204158.physics_Egamma.NTUP_SMWZ.r4065_p1278_p1328_p1329_tid01122107_00.PrgSkim.v12/
user.okepka.data12_8TeV.00209776.physics_Egamma.NTUP_SMWZ.r4065_p1278_p1328_p1329_tid01122516_00.PrgSkim.v12/
user.okepka.data12_8TeV.00215473.physics_Egamma.NTUP_SMWZ.f495_m1266_p1328_p1329_tid01128298_00.PrgSkim.v12/
user.okepka.data12_8TeV.00204707.physics_Egamma.NTUP_SMWZ.r4065_p1278_p1328_p1329_tid01122116_00.PrgSkim.v12/
user.okepka.data12_8TeV.00209109.physics_Egamma.NTUP_SMWZ.r4065_p1278_p1328_p1329_tid01122501_00.PrgSkim.v12/
user.okepka.data12_8TeV.00209866.physics_Egamma.NTUP_SMWZ.r4065_p1278_p1328_p1329_tid01122520_00.PrgSkim.v12/
user.okepka.data12_8TeV.00200842.physics_Egamma.NTUP_SMWZ.r4644_p1517_p1328_p1329_tid01420906_00.PrgSkim.v12/
user.okepka.data12_8TeV.00204910.physics_Egamma.NTUP_SMWZ.r4065_p1278_p1328_p1329_tid01122124_00.PrgSkim.v12/
user.okepka.data12_8TeV.00203456.physics_Egamma.NTUP_SMWZ.r4065_p1278_p1328_p1329_tid01122085_00.PrgSkim.v12/
user.okepka.data12_8TeV.00208930.physics_Egamma.NTUP_SMWZ.r4065_p1278_p1328_p1329_tid01122398_00.PrgSkim.v12/
user.okepka.data12_8TeV.00204633.physics_Egamma.NTUP_SMWZ.r4065_p1278_p1328_p1329_tid01122114_00.PrgSkim.v12/
user.okepka.data12_8TeV.00212199.physics_Egamma.NTUP_SMWZ.r4065_p1278_p1328_p1329_tid01122597_00.PrgSkim.v12/
user.okepka.data12_8TeV.00208970.physics_Egamma.NTUP_SMWZ.r4065_p1278_p1328_p1329_tid01122400_00.PrgSkim.v12/
user.okepka.data12_8TeV.00212809.physics_Egamma.NTUP_SMWZ.r4065_p1278_p1328_p1329_tid01122639_00.PrgSkim.v12/
user.okepka.data12_8TeV.00214494.physics_Egamma.NTUP_SMWZ.f486_m1261_p1328_p1329_tid01128227_00.PrgSkim.v12/
user.okepka.data12_8TeV.00207490.physics_Egamma.NTUP_SMWZ.r4065_p1278_p1328_p1329_tid01122357_00.PrgSkim.v12/
user.okepka.data12_8TeV.00209736.physics_Egamma.NTUP_SMWZ.r4065_p1278_p1328_p1329_tid01122515_00.PrgSkim.v12/
user.okepka.data12_8TeV.00214553.physics_Egamma.NTUP_SMWZ.f489_m1261_p1328_p1329_tid01128230_00.PrgSkim.v12/
user.okepka.data12_8TeV.00209025.physics_Egamma.NTUP_SMWZ.r4065_p1278_p1328_p1329_tid01122402_00.PrgSkim.v12/
user.okepka.data12_8TeV.00203523.physics_Egamma.NTUP_SMWZ.r4065_p1278_p1328_p1329_tid01122086_00.PrgSkim.v12/
user.okepka.data12_8TeV.00207447.physics_Egamma.NTUP_SMWZ.r4065_p1278_p1328_p1329_tid01122356_00.PrgSkim.v12/
user.okepka.data12_8TeV.00208123.physics_Egamma.NTUP_SMWZ.r4065_p1278_p1328_p1329_tid01122378_00.PrgSkim.v12/
user.okepka.data12_8TeV.00207800.physics_Egamma.NTUP_SMWZ.r4065_p1278_p1328_p1329_tid01122368_00.PrgSkim.v12/
user.okepka.data12_8TeV.00215464.physics_Egamma.NTUP_SMWZ.f495_m1266_p1328_p1329_tid01128297_00.PrgSkim.v12/
user.okepka.data12_8TeV.00204442.physics_Egamma.NTUP_SMWZ.r4065_p1278_p1328_p1329_tid01122111_00.PrgSkim.v12/
user.okepka.data12_8TeV.00200926.physics_Egamma.NTUP_SMWZ.r4644_p1517_p1328_p1329_tid01420908_00.PrgSkim.v12/
user.okepka.data12_8TeV.00204153.physics_Egamma.NTUP_SMWZ.r4065_p1278_p1328_p1329_tid01122106_00.PrgSkim.v12/
user.okepka.data12_8TeV.00202991.physics_Egamma.NTUP_SMWZ.r4065_p1278_p1328_p1329_tid01122071_00.PrgSkim.v12/
user.okepka.data12_8TeV.00201006.physics_Egamma.NTUP_SMWZ.r4644_p1517_p1328_p1329_tid01420913_00.PrgSkim.v12/
user.okepka.data12_8TeV.00213039.physics_Egamma.NTUP_SMWZ.r4065_p1278_p1328_p1329_tid01122644_00.PrgSkim.v12/
user.okepka.data12_8TeV.00211787.physics_Egamma.NTUP_SMWZ.r4065_p1278_p1328_p1329_tid01122587_00.PrgSkim.v12/
user.okepka.data12_8TeV.00206955.physics_Egamma.NTUP_SMWZ.r4065_p1278_p1328_p1329_tid01122289_00.PrgSkim.v12/
user.okepka.data12_8TeV.00207749.physics_Egamma.NTUP_SMWZ.r4065_p1278_p1328_p1329_tid01122366_00.PrgSkim.v12/
user.okepka.data12_8TeV.00215063.physics_Egamma.NTUP_SMWZ.f495_m1266_p1328_p1329_tid01128240_00.PrgSkim.v12/
user.okepka.data12_8TeV.00212721.physics_Egamma.NTUP_SMWZ.r4065_p1278_p1328_p1329_tid01122637_00.PrgSkim.v12/
user.okepka.data12_8TeV.00208184.physics_Egamma.NTUP_SMWZ.r4065_p1278_p1328_p1329_tid01122381_00.PrgSkim.v12/
user.okepka.data12_8TeV.00206564.physics_Egamma.NTUP_SMWZ.r4065_p1278_p1328_p1329_tid01122286_00.PrgSkim.v12/
user.okepka.data12_8TeV.00208189.physics_Egamma.NTUP_SMWZ.r4065_p1278_p1328_p1329_tid01122382_00.PrgSkim.v12/
user.okepka.data12_8TeV.00211620.physics_Egamma.NTUP_SMWZ.r4065_p1278_p1328_p1329_tid01122583_00.PrgSkim.v12/
user.okepka.data12_8TeV.00213157.physics_Egamma.NTUP_SMWZ.r4065_p1278_p1328_p1329_tid01122649_00.PrgSkim.v12/
user.okepka.data12_8TeV.00207262.physics_Egamma.NTUP_SMWZ.r4065_p1278_p1328_p1329_tid01122296_00.PrgSkim.v12/
user.okepka.data12_8TeV.00203258.physics_Egamma.NTUP_SMWZ.r4065_p1278_p1328_p1329_tid01122078_00.PrgSkim.v12/
user.okepka.data12_8TeV.00204763.physics_Egamma.NTUP_SMWZ.r4065_p1278_p1328_p1329_tid01122118_00.PrgSkim.v12/
user.okepka.data12_8TeV.00208642.physics_Egamma.NTUP_SMWZ.r4065_p1278_p1328_p1329_tid01122389_00.PrgSkim.v12/
user.okepka.data12_8TeV.00206248.physics_Egamma.NTUP_SMWZ.r4065_p1278_p1328_p1329_tid01122278_00.PrgSkim.v12/
user.okepka.data12_8TeV.00212272.physics_Egamma.NTUP_SMWZ.r4065_p1278_p1328_p1329_tid01122598_00.PrgSkim.v12/
user.okepka.data12_8TeV.00213754.physics_Egamma.NTUP_SMWZ.f485_m1250_p1328_p1329_tid01128184_00.PrgSkim.v12/
user.okepka.data12_8TeV.00213130.physics_Egamma.NTUP_SMWZ.r4065_p1278_p1328_p1329_tid01122647_00.PrgSkim.v12/
user.okepka.data12_8TeV.00213486.physics_Egamma.NTUP_SMWZ.f482_m1238_p1328_p1329_tid01128177_00.PrgSkim.v12/
user.okepka.data12_8TeV.00206971.physics_Egamma.NTUP_SMWZ.r4065_p1278_p1328_p1329_tid01122291_00.PrgSkim.v12/
user.okepka.data12_8TeV.00214544.physics_Egamma.NTUP_SMWZ.f486_m1261_p1328_p1329_tid01128229_00.PrgSkim.v12/
user.okepka.data12_8TeV.00208179.physics_Egamma.NTUP_SMWZ.r4065_p1278_p1328_p1329_tid01122380_00.PrgSkim.v12/
user.okepka.data12_8TeV.00214680.physics_Egamma.NTUP_SMWZ.f489_m1261_p1328_p1329_tid01128233_00.PrgSkim.v12/
user.okepka.data12_8TeV.00204474.physics_Egamma.NTUP_SMWZ.r4065_p1278_p1328_p1329_tid01122112_00.PrgSkim.v12/
user.okepka.data12_8TeV.00213702.physics_Egamma.NTUP_SMWZ.f482_m1250_p1328_p1329_tid01128183_00.PrgSkim.v12/
user.okepka.data12_8TeV.00207221.physics_Egamma.NTUP_SMWZ.r4065_p1278_p1328_p1329_tid01122295_00.PrgSkim.v12/
user.okepka.data12_8TeV.00208631.physics_Egamma.NTUP_SMWZ.r4065_p1278_p1328_p1329_tid01122388_00.PrgSkim.v12/
user.okepka.data12_8TeV.00208485.physics_Egamma.NTUP_SMWZ.r4065_p1278_p1328_p1329_tid01122387_00.PrgSkim.v12/
user.okepka.data12_8TeV.00207809.physics_Egamma.NTUP_SMWZ.r4065_p1278_p1328_p1329_tid01122369_00.PrgSkim.v12/
user.okepka.data12_8TeV.00212858.physics_Egamma.NTUP_SMWZ.r4065_p1278_p1328_p1329_tid01122641_00.PrgSkim.v12/
user.okepka.data12_8TeV.00209269.physics_Egamma.NTUP_SMWZ.r4065_p1278_p1328_p1329_tid01122507_00.PrgSkim.v12/
user.okepka.data12_8TeV.00208780.physics_Egamma.NTUP_SMWZ.r4065_p1278_p1328_p1329_tid01198531_00.PrgSkim.v12/
user.okepka.data12_8TeV.00213250.physics_Egamma.NTUP_SMWZ.r4065_p1278_p1328_p1329_tid01122651_00.PrgSkim.v12/
user.okepka.data12_8TeV.00203256.physics_Egamma.NTUP_SMWZ.r4065_p1278_p1328_p1329_tid01122077_00.PrgSkim.v12/
user.okepka.data12_8TeV.00207982.physics_Egamma.NTUP_SMWZ.r4065_p1278_p1328_p1329_tid01122377_00.PrgSkim.v12/
user.okepka.data12_8TeV.00201289.physics_Egamma.NTUP_SMWZ.r4644_p1517_p1328_p1329_tid01420923_00.PrgSkim.v12/
user.okepka.data12_8TeV.00203605.physics_Egamma.NTUP_SMWZ.r4065_p1278_p1328_p1329_tid01122089_00.PrgSkim.v12/
user.okepka.data12_8TeV.00203432.physics_Egamma.NTUP_SMWZ.r4065_p1278_p1328_p1329_tid01122083_00.PrgSkim.v12/
user.okepka.data12_8TeV.00206614.physics_Egamma.NTUP_SMWZ.r4065_p1278_p1328_p1329_tid01122288_00.PrgSkim.v12/
user.okepka.data12_8TeV.00201120.physics_Egamma.NTUP_SMWZ.r4644_p1517_p1328_p1329_tid01420916_00.PrgSkim.v12/
user.okepka.data12_8TeV.00201556.physics_Egamma.NTUP_SMWZ.r4644_p1517_p1328_p1329_tid01420927_00.PrgSkim.v12/
user.okepka.data12_8TeV.00208720.physics_Egamma.NTUP_SMWZ.r4065_p1278_p1328_p1329_tid01122393_00.PrgSkim.v12/
user.okepka.data12_8TeV.00213479.physics_Egamma.NTUP_SMWZ.f482_m1238_p1328_p1329_tid01128175_00.PrgSkim.v12/
user.okepka.data12_8TeV.00203779.physics_Egamma.NTUP_SMWZ.r4065_p1278_p1328_p1329_tid01122096_00.PrgSkim.v12/
user.okepka.data12_8TeV.00209994.physics_Egamma.NTUP_SMWZ.r4065_p1278_p1328_p1329_tid01122524_00.PrgSkim.v12/
user.okepka.data12_8TeV.00208484.physics_Egamma.NTUP_SMWZ.r4065_p1278_p1328_p1329_tid01122386_00.PrgSkim.v12/
user.okepka.data12_8TeV.00201489.physics_Egamma.NTUP_SMWZ.r4644_p1517_p1328_p1329_tid01420924_00.PrgSkim.v12/
user.okepka.data12_8TeV.00212663.physics_Egamma.NTUP_SMWZ.r4065_p1278_p1328_p1329_tid01122635_00.PrgSkim.v12/
user.okepka.data12_8TeV.00212103.physics_Egamma.NTUP_SMWZ.r4065_p1278_p1328_p1329_tid01122593_00.PrgSkim.v12/
user.okepka.data12_8TeV.00204073.physics_Egamma.NTUP_SMWZ.r4065_p1278_p1328_p1329_tid01122104_00.PrgSkim.v12/
user.okepka.data12_8TeV.00204668.physics_Egamma.NTUP_SMWZ.r4065_p1278_p1328_p1329_tid01122115_00.PrgSkim.v12/
user.okepka.data12_8TeV.00201257.physics_Egamma.NTUP_SMWZ.r4644_p1517_p1328_p1329_tid01420920_00.PrgSkim.v12/
user.okepka.data12_8TeV.00204026.physics_Egamma.NTUP_SMWZ.r4065_p1278_p1328_p1329_tid01122102_00.PrgSkim.v12/
user.okepka.data12_8TeV.00203335.physics_Egamma.NTUP_SMWZ.r4065_p1278_p1328_p1329_tid01122080_00.PrgSkim.v12/
user.okepka.data12_8TeV.00212034.physics_Egamma.NTUP_SMWZ.r4065_p1278_p1328_p1329_tid01122592_00.PrgSkim.v12/
user.okepka.data12_8TeV.00207332.physics_Egamma.NTUP_SMWZ.r4065_p1278_p1328_p1329_tid01122299_00.PrgSkim.v12/
user.okepka.data12_8TeV.00209628.physics_Egamma.NTUP_SMWZ.r4065_p1278_p1328_p1329_tid01122513_00.PrgSkim.v12/
user.okepka.data12_8TeV.00213155.physics_Egamma.NTUP_SMWZ.r4065_p1278_p1328_p1329_tid01122648_00.PrgSkim.v12/
user.okepka.data12_8TeV.00215091.physics_Egamma.NTUP_SMWZ.f495_m1266_p1328_p1329_tid01128241_00.PrgSkim.v12/
user.okepka.data12_8TeV.00208705.physics_Egamma.NTUP_SMWZ.r4065_p1278_p1328_p1329_tid01122391_00.PrgSkim.v12/
user.okepka.data12_8TeV.00202798.physics_Egamma.NTUP_SMWZ.r4065_p1278_p1328_p1329_tid01122068_00.PrgSkim.v12/
user.okepka.data12_8TeV.00214086.physics_Egamma.NTUP_SMWZ.f485_m1255_p1328_p1329_tid01128221_00.PrgSkim.v12/
user.okepka.data12_8TeV.00208781.physics_Egamma.NTUP_SMWZ.r4065_p1278_p1328_p1329_tid01122395_00.PrgSkim.v12/
user.okepka.data12_8TeV.00208717.physics_Egamma.NTUP_SMWZ.r4065_p1278_p1328_p1329_tid01122392_00.PrgSkim.v12/
user.okepka.data12_8TeV.00208982.physics_Egamma.NTUP_SMWZ.r4065_p1278_p1328_p1329_tid01122401_00.PrgSkim.v12/
user.okepka.data12_8TeV.00211522.physics_Egamma.NTUP_SMWZ.r4065_p1278_p1328_p1329_tid01122582_00.PrgSkim.v12/
user.okepka.data12_8TeV.00203353.physics_Egamma.NTUP_SMWZ.r4065_p1278_p1328_p1329_tid01122082_00.PrgSkim.v12/
user.okepka.data12_8TeV.00214651.physics_Egamma.NTUP_SMWZ.f489_m1261_p1328_p1329_tid01128232_00.PrgSkim.v12/
user.okepka.data12_8TeV.00215061.physics_Egamma.NTUP_SMWZ.f495_m1266_p1328_p1329_tid01128239_00.PrgSkim.v12/
user.okepka.data12_8TeV.00211867.physics_Egamma.NTUP_SMWZ.r4065_p1278_p1328_p1329_tid01122588_00.PrgSkim.v12/
user.okepka.data12_8TeV.00203191.physics_Egamma.NTUP_SMWZ.r4065_p1278_p1328_p1329_tid01122074_00.PrgSkim.v12/
user.okepka.data12_8TeV.00211697.physics_Egamma.NTUP_SMWZ.r4065_p1278_p1328_p1329_tid01122585_00.PrgSkim.v12/
user.okepka.data12_8TeV.00214721.physics_Egamma.NTUP_SMWZ.f489_m1261_p1328_p1329_tid01128235_00.PrgSkim.v12/
user.okepka.data12_8TeV.00208261.physics_Egamma.NTUP_SMWZ.r4065_p1278_p1328_p1329_tid01122384_00.PrgSkim.v12/
user.okepka.data12_8TeV.00207620.physics_Egamma.NTUP_SMWZ.r4065_p1278_p1328_p1329_tid01122363_00.PrgSkim.v12/
user.okepka.data12_8TeV.00200913.physics_Egamma.NTUP_SMWZ.r4644_p1517_p1328_p1329_tid01420887_00.PrgSkim.v12/
user.okepka.data12_8TeV.00202712.physics_Egamma.NTUP_SMWZ.r4065_p1278_p1328_p1329_tid01122066_00.PrgSkim.v12/
user.okepka.data12_8TeV.00203195.physics_Egamma.NTUP_SMWZ.r4065_p1278_p1328_p1329_tid01122075_00.PrgSkim.v12/
user.okepka.data12_8TeV.00213092.physics_Egamma.NTUP_SMWZ.r4065_p1278_p1328_p1329_tid01122646_00.PrgSkim.v12/
user.okepka.data12_8TeV.00209787.physics_Egamma.NTUP_SMWZ.r4065_p1278_p1328_p1329_tid01122517_00.PrgSkim.v12/
user.okepka.data12_8TeV.00200965.physics_Egamma.NTUP_SMWZ.r4644_p1517_p1328_p1329_tid01420909_00.PrgSkim.v12/
user.okepka.data12_8TeV.00206253.physics_Egamma.NTUP_SMWZ.r4065_p1278_p1328_p1329_tid01122279_00.PrgSkim.v12/
user.okepka.data12_8TeV.00206367.physics_Egamma.NTUP_SMWZ.r4065_p1278_p1328_p1329_tid01122281_00.PrgSkim.v12/
user.okepka.data12_8TeV.00215589.physics_Egamma.NTUP_SMWZ.f495_m1266_p1328_p1329_tid01128302_00.PrgSkim.v12/
user.okepka.data12_8TeV.00204932.physics_Egamma.NTUP_SMWZ.r4065_p1278_p1328_p1329_tid01122125_00.PrgSkim.v12/
user.okepka.data12_8TeV.00212172.physics_Egamma.NTUP_SMWZ.r4065_p1278_p1328_p1329_tid01122596_00.PrgSkim.v12/
user.okepka.data12_8TeV.00211772.physics_Egamma.NTUP_SMWZ.r4065_p1278_p1328_p1329_tid01122586_00.PrgSkim.v12/
user.okepka.data12_8TeV.00202740.physics_Egamma.NTUP_SMWZ.r4065_p1278_p1328_p1329_tid01122067_00.PrgSkim.v12/
user.okepka.data12_8TeV.00201052.physics_Egamma.NTUP_SMWZ.r4644_p1517_p1328_p1329_tid01420914_00.PrgSkim.v12/
user.okepka.data12_8TeV.00201190.physics_Egamma.NTUP_SMWZ.r4644_p1517_p1328_p1329_tid01420918_00.PrgSkim.v12/
user.okepka.data12_8TeV.00210308.physics_Egamma.NTUP_SMWZ.r4065_p1278_p1328_p1329_tid01122527_00.PrgSkim.v12/
user.okepka.data12_8TeV.00212967.physics_Egamma.NTUP_SMWZ.r4065_p1278_p1328_p1329_tid01122642_00.PrgSkim.v12/
user.okepka.data12_8TeV.00213964.physics_Egamma.NTUP_SMWZ.f485_m1255_p1328_p1329_tid01128218_00.PrgSkim.v12/
user.okepka.data12_8TeV.00214714.physics_Egamma.NTUP_SMWZ.f489_m1261_p1328_p1329_tid01128234_00.PrgSkim.v12/
user.okepka.data12_8TeV.00213900.physics_Egamma.NTUP_SMWZ.f485_m1255_p1328_p1329_tid01128216_00.PrgSkim.v12/
user.okepka.data12_8TeV.00209254.physics_Egamma.NTUP_SMWZ.r4065_p1278_p1328_p1329_tid01122505_00.PrgSkim.v12/
user.okepka.data12_8TeV.00209381.physics_Egamma.NTUP_SMWZ.r4065_p1278_p1328_p1329_tid01122509_00.PrgSkim.v12/
user.okepka.data12_8TeV.00206962.physics_Egamma.NTUP_SMWZ.r4065_p1278_p1328_p1329_tid01122290_00.PrgSkim.v12/
user.okepka.data12_8TeV.00207931.physics_Egamma.NTUP_SMWZ.r4065_p1278_p1328_p1329_tid01122374_00.PrgSkim.v12/
user.okepka.data12_8TeV.00204726.physics_Egamma.NTUP_SMWZ.r4065_p1278_p1328_p1329_tid01122117_00.PrgSkim.v12/
user.okepka.data12_8TeV.00207306.physics_Egamma.NTUP_SMWZ.r4065_p1278_p1328_p1329_tid01122298_00.PrgSkim.v12/
user.okepka.data12_8TeV.00208931.physics_Egamma.NTUP_SMWZ.r4065_p1278_p1328_p1329_tid01122399_00.PrgSkim.v12/
user.okepka.data12_8TeV.00204769.physics_Egamma.NTUP_SMWZ.r4065_p1278_p1328_p1329_tid01122119_00.PrgSkim.v12/
user.okepka.data12_8TeV.00209084.physics_Egamma.NTUP_SMWZ.r4065_p1278_p1328_p1329_tid01122500_00.PrgSkim.v12/
user.okepka.data12_8TeV.00213819.physics_Egamma.NTUP_SMWZ.f485_m1250_p1328_p1329_tid01128187_00.PrgSkim.v12/
user.okepka.data12_8TeV.00200987.physics_Egamma.NTUP_SMWZ.r4644_p1517_p1328_p1329_tid01420912_00.PrgSkim.v12/
user.okepka.data12_8TeV.00205055.physics_Egamma.NTUP_SMWZ.r4065_p1278_p1328_p1329_tid01122132_00.PrgSkim.v12/
user.okepka.data12_8TeV.00214758.physics_Egamma.NTUP_SMWZ.f489_m1261_p1328_p1329_tid01128236_00.PrgSkim.v12/
user.okepka.data12_8TeV.00209074.physics_Egamma.NTUP_SMWZ.r4065_p1278_p1328_p1329_tid01122499_00.PrgSkim.v12/
user.okepka.data12_8TeV.00204954.physics_Egamma.NTUP_SMWZ.r4065_p1278_p1328_p1329_tid01122126_00.PrgSkim.v12/
user.okepka.data12_8TeV.00202965.physics_Egamma.NTUP_SMWZ.r4065_p1278_p1328_p1329_tid01122069_00.PrgSkim.v12/
user.okepka.data12_8TeV.00200982.physics_Egamma.NTUP_SMWZ.r4644_p1517_p1328_p1329_tid01420911_00.PrgSkim.v12/
user.okepka.data12_8TeV.00213968.physics_Egamma.NTUP_SMWZ.f485_m1255_p1328_p1329_tid01128219_00.PrgSkim.v12/
user.okepka.data12_8TeV.00202987.physics_Egamma.NTUP_SMWZ.r4065_p1278_p1328_p1329_tid01122070_00.PrgSkim.v12/
user.okepka.data12_8TeV.00213314.physics_Egamma.NTUP_SMWZ.r4065_p1278_p1328_p1329_tid01122652_00.PrgSkim.v12/
user.okepka.data12_8TeV.00214618.physics_Egamma.NTUP_SMWZ.f489_m1261_p1328_p1329_tid01128231_00.PrgSkim.v12/
user.okepka.data12_8TeV.00212000.physics_Egamma.NTUP_SMWZ.r4065_p1278_p1328_p1329_tid01122591_00.PrgSkim.v12/
user.okepka.data12_8TeV.00209608.physics_Egamma.NTUP_SMWZ.r4065_p1278_p1328_p1329_tid01122512_00.PrgSkim.v12/
user.okepka.data12_8TeV.00205017.physics_Egamma.NTUP_SMWZ.r4065_p1278_p1328_p1329_tid01122131_00.PrgSkim.v12/
user.okepka.data12_8TeV.00215414.physics_Egamma.NTUP_SMWZ.f495_m1266_p1328_p1329_tid01128294_00.PrgSkim.v12/
user.okepka.data12_8TeV.00211937.physics_Egamma.NTUP_SMWZ.r4065_p1278_p1328_p1329_tid01122590_00.PrgSkim.v12/
user.okepka.data12_8TeV.00208811.physics_Egamma.NTUP_SMWZ.r4065_p1278_p1328_p1329_tid01122396_00.PrgSkim.v12/
user.okepka.data12_8TeV.00215433.physics_Egamma.NTUP_SMWZ.f495_m1266_p1328_p1329_tid01128295_00.PrgSkim.v12/
user.okepka.data12_8TeV.00203745.physics_Egamma.NTUP_SMWZ.r4065_p1278_p1328_p1329_tid01122094_00.PrgSkim.v12/
user.okepka.data12_8TeV.00200967.physics_Egamma.NTUP_SMWZ.r4644_p1517_p1328_p1329_tid01420910_00.PrgSkim.v12/
user.okepka.data12_8TeV.00214777.physics_Egamma.NTUP_SMWZ.f489_m1261_p1328_p1329_tid01128237_00.PrgSkim.v12/
user.okepka.data12_8TeV.00213627.physics_Egamma.NTUP_SMWZ.f482_m1250_p1328_p1329_tid01128179_00.PrgSkim.v12/
user.okepka.data12_8TeV.00207975.physics_Egamma.NTUP_SMWZ.r4065_p1278_p1328_p1329_tid01122376_00.PrgSkim.v12/
user.okepka.data12_8TeV.00203169.physics_Egamma.NTUP_SMWZ.r4065_p1278_p1328_p1329_tid01122073_00.PrgSkim.v12/
user.okepka.data12_8TeV.00208870.physics_Egamma.NTUP_SMWZ.r4065_p1278_p1328_p1329_tid01122397_00.PrgSkim.v12/
user.okepka.data12_8TeV.00207772.physics_Egamma.NTUP_SMWZ.r4065_p1278_p1328_p1329_tid01122367_00.PrgSkim.v12/
user.okepka.data12_8TeV.00201113.physics_Egamma.NTUP_SMWZ.r4644_p1517_p1328_p1329_tid01420915_00.PrgSkim.v12/
user.okepka.data12_8TeV.00209812.physics_Egamma.NTUP_SMWZ.r4065_p1278_p1328_p1329_tid01122518_00.PrgSkim.v12/
user.okepka.data12_8TeV.00201351.physics_Egamma.NTUP_SMWZ.r4644_p1517_p1328_p1329_tid01433382_00.PrgSkim.v12/
user.okepka.data12_8TeV.00213684.physics_Egamma.NTUP_SMWZ.f482_m1250_p1328_p1329_tid01128181_00.PrgSkim.v12/
user.okepka.data12_8TeV.00207582.physics_Egamma.NTUP_SMWZ.r4065_p1278_p1328_p1329_tid01122361_00.PrgSkim.v12/
user.okepka.data12_8TeV.00208258.physics_Egamma.NTUP_SMWZ.r4065_p1278_p1328_p1329_tid01122383_00.PrgSkim.v12/
user.okepka.data12_8TeV.00207044.physics_Egamma.NTUP_SMWZ.r4065_p1278_p1328_p1329_tid01122292_00.PrgSkim.v12/
user.okepka.data12_8TeV.00212144.physics_Egamma.NTUP_SMWZ.r4065_p1278_p1328_p1329_tid01122595_00.PrgSkim.v12/
user.okepka.data12_8TeV.00207864.physics_Egamma.NTUP_SMWZ.r4065_p1278_p1328_p1329_tid01122371_00.PrgSkim.v12/
user.okepka.data12_8TeV.00205113.physics_Egamma.NTUP_SMWZ.r4065_p1278_p1328_p1329_tid01122135_00.PrgSkim.v12/
user.okepka.data12_8TeV.00202660.physics_Egamma.NTUP_SMWZ.r4065_p1278_p1328_p1329_tid01122064_00.PrgSkim.v12/
user.okepka.data12_8TeV.00209899.physics_Egamma.NTUP_SMWZ.r4065_p1278_p1328_p1329_tid01122521_00.PrgSkim.v12/
user.okepka.data12_8TeV.00213796.physics_Egamma.NTUP_SMWZ.f485_m1250_p1328_p1329_tid01128185_00.PrgSkim.v12/
user.okepka.data12_8TeV.00213359.physics_Egamma.NTUP_SMWZ.r4065_p1278_p1328_p1329_tid01122653_00.PrgSkim.v12/
user.okepka.data12_8TeV.00209980.physics_Egamma.NTUP_SMWZ.r4065_p1278_p1328_p1329_tid01122523_00.PrgSkim.v12/
user.okepka.data12_8TeV.00212815.physics_Egamma.NTUP_SMWZ.r4065_p1278_p1328_p1329_tid01122640_00.PrgSkim.v12/
user.okepka.data12_8TeV.00208126.physics_Egamma.NTUP_SMWZ.r4065_p1278_p1328_p1329_tid01122379_00.PrgSkim.v12/
user.okepka.data12_8TeV.00201269.physics_Egamma.NTUP_SMWZ.r4644_p1517_p1328_p1329_tid01420921_00.PrgSkim.v12/
user.okepka.data12_8TeV.00209995.physics_Egamma.NTUP_SMWZ.r4065_p1278_p1328_p1329_tid01122525_00.PrgSkim.v12/
user.okepka.data12_8TeV.00204265.physics_Egamma.NTUP_SMWZ.r4065_p1278_p1328_p1329_tid01122109_00.PrgSkim.v12/
user.okepka.data12_8TeV.00203739.physics_Egamma.NTUP_SMWZ.r4065_p1278_p1328_p1329_tid01122093_00.PrgSkim.v12/
user.okepka.data12_8TeV.00212742.physics_Egamma.NTUP_SMWZ.r4065_p1278_p1328_p1329_tid01122638_00.PrgSkim.v12/
user.okepka.data12_8TeV.00213951.physics_Egamma.NTUP_SMWZ.f485_m1255_p1328_p1329_tid01128217_00.PrgSkim.v12/
user.okepka.data12_8TeV.00207304.physics_Egamma.NTUP_SMWZ.r4065_p1278_p1328_p1329_tid01122297_00.PrgSkim.v12/
user.okepka.data12_8TeV.00207845.physics_Egamma.NTUP_SMWZ.r4065_p1278_p1328_p1329_tid01122370_00.PrgSkim.v12/
user.okepka.data12_8TeV.00207531.physics_Egamma.NTUP_SMWZ.r4065_p1278_p1328_p1329_tid01122359_00.PrgSkim.v12/
user.okepka.data12_8TeV.00205071.physics_Egamma.NTUP_SMWZ.r4065_p1278_p1328_p1329_tid01122133_00.PrgSkim.v12/
user.okepka.data12_8TeV.00207934.physics_Egamma.NTUP_SMWZ.r4065_p1278_p1328_p1329_tid01122375_00.PrgSkim.v12/
user.okepka.data12_8TeV.00204564.physics_Egamma.NTUP_SMWZ.r4065_p1278_p1328_p1329_tid01122113_00.PrgSkim.v12/
user.okepka.data12_8TeV.00208662.physics_Egamma.NTUP_SMWZ.r4065_p1278_p1328_p1329_tid01122390_00.PrgSkim.v12/
user.okepka.data12_8TeV.00214390.physics_Egamma.NTUP_SMWZ.f486_m1255_p1328_p1329_tid01128226_00.PrgSkim.v12/
user.okepka.data12_8TeV.00204134.physics_Egamma.NTUP_SMWZ.r4065_p1278_p1328_p1329_tid01122105_00.PrgSkim.v12/
user.okepka.data12_8TeV.00209580.physics_Egamma.NTUP_SMWZ.r4065_p1278_p1328_p1329_tid01122511_00.PrgSkim.v12/
user.okepka.data12_8TeV.00206409.physics_Egamma.NTUP_SMWZ.r4065_p1278_p1328_p1329_tid01122284_00.PrgSkim.v12/
user.okepka.data12_8TeV.00206369.physics_Egamma.NTUP_SMWZ.r4065_p1278_p1328_p1329_tid01122283_00.PrgSkim.v12/
user.okepka.data12_8TeV.00213539.physics_Egamma.NTUP_SMWZ.f482_m1250_p1328_p1329_tid01128178_00.PrgSkim.v12/
user.okepka.data12_8TeV.00206368.physics_Egamma.NTUP_SMWZ.r4065_p1278_p1328_p1329_tid01122282_00.PrgSkim.v12/
user.okepka.data12_8TeV.00207664.physics_Egamma.NTUP_SMWZ.r4065_p1278_p1328_p1329_tid01122364_00.PrgSkim.v12/
user.okepka.data12_8TeV.00213079.physics_Egamma.NTUP_SMWZ.r4065_p1278_p1328_p1329_tid01122645_00.PrgSkim.v12/
user.okepka.data12_8TeV.00207397.physics_Egamma.NTUP_SMWZ.r4065_p1278_p1328_p1329_tid01122300_00.PrgSkim.v12/
user.okepka.data12_8TeV.00207865.physics_Egamma.NTUP_SMWZ.r4065_p1278_p1328_p1329_tid01122372_00.PrgSkim.v12/
user.okepka.data12_8TeV.00203636.physics_Egamma.NTUP_SMWZ.r4065_p1278_p1328_p1329_tid01122090_00.PrgSkim.v12/
user.okepka.data12_8TeV.00215559.physics_Egamma.NTUP_SMWZ.f495_m1266_p1328_p1329_tid01128300_00.PrgSkim.v12/
user.okepka.data12_8TeV.00203454.physics_Egamma.NTUP_SMWZ.r4065_p1278_p1328_p1329_tid01122084_00.PrgSkim.v12/
user.okepka.data12_8TeV.00215541.physics_Egamma.NTUP_SMWZ.f495_m1266_p1328_p1329_tid01128299_00.PrgSkim.v12/
user.okepka.data12_8TeV.00203680.physics_Egamma.NTUP_SMWZ.r4065_p1278_p1328_p1329_tid01122091_00.PrgSkim.v12/
user.okepka.data12_8TeV.00203228.physics_Egamma.NTUP_SMWZ.r4065_p1278_p1328_p1329_tid01122076_00.PrgSkim.v12/
user.okepka.data12_8TeV.00201494.physics_Egamma.NTUP_SMWZ.r4644_p1517_p1328_p1329_tid01420925_00.PrgSkim.v12/
user.okepka.data12_8TeV.00214021.physics_Egamma.NTUP_SMWZ.f485_m1255_p1328_p1329_tid01128220_00.PrgSkim.v12/
user.okepka.data12_8TeV.00214523.physics_Egamma.NTUP_SMWZ.f486_m1261_p1328_p1329_tid01128228_00.PrgSkim.v12/
user.okepka.data12_8TeV.00207113.physics_Egamma.NTUP_SMWZ.r4065_p1278_p1328_p1329_tid01122294_00.PrgSkim.v12/
user.okepka.data12_8TeV.00212619.physics_Egamma.NTUP_SMWZ.r4065_p1278_p1328_p1329_tid01122634_00.PrgSkim.v12/
user.okepka.data12_8TeV.00203875.physics_Egamma.NTUP_SMWZ.r4065_p1278_p1328_p1329_tid01122098_00.PrgSkim.v12/
user.okepka.data12_8TeV.00211670.physics_Egamma.NTUP_SMWZ.r4065_p1278_p1328_p1329_tid01122584_00.PrgSkim.v12/
user.okepka.data12_8TeV.00206573.physics_Egamma.NTUP_SMWZ.r4065_p1278_p1328_p1329_tid01122287_00.PrgSkim.v12/
user.okepka.data12_8TeV.00200863.physics_Egamma.NTUP_SMWZ.r4644_p1517_p1328_p1329_tid01420907_00.PrgSkim.v12/
user.okepka.data12_8TeV.00203792.physics_Egamma.NTUP_SMWZ.r4065_p1278_p1328_p1329_tid01122097_00.PrgSkim.v12/
user.okepka.data12_8TeV.00212142.physics_Egamma.NTUP_SMWZ.r4065_p1278_p1328_p1329_tid01122594_00.PrgSkim.v12/
user.okepka.data12_8TeV.00204772.physics_Egamma.NTUP_SMWZ.r4065_p1278_p1328_p1329_tid01122120_00.PrgSkim.v12/
user.okepka.data12_8TeV.00215456.physics_Egamma.NTUP_SMWZ.f495_m1266_p1328_p1329_tid01128296_00.PrgSkim.v12/
user.okepka.data12_8TeV.00214160.physics_Egamma.NTUP_SMWZ.f486_m1255_p1328_p1329_tid01128222_00.PrgSkim.v12/
user.okepka.data12_8TeV.00213480.physics_Egamma.NTUP_SMWZ.f482_m1238_p1328_p1329_tid01128176_00.PrgSkim.v12/
user.okepka.data12_8TeV.00213816.physics_Egamma.NTUP_SMWZ.f485_m1250_p1328_p1329_tid01128186_00.PrgSkim.v12/
user.okepka.data12_8TeV.00202668.physics_Egamma.NTUP_SMWZ.r4065_p1278_p1328_p1329_tid01122065_00.PrgSkim.v12/
user.okepka.data12_8TeV.00215027.physics_Egamma.NTUP_SMWZ.f495_m1266_p1328_p1329_tid01128238_00.PrgSkim.v12/
user.okepka.data12_8TeV.00204240.physics_Egamma.NTUP_SMWZ.r4065_p1278_p1328_p1329_tid01122108_00.PrgSkim.v12/
user.okepka.data12_8TeV.00203524.physics_Egamma.NTUP_SMWZ.r4065_p1278_p1328_p1329_tid01122087_00.PrgSkim.v12/
user.okepka.data12_8TeV.00201555.physics_Egamma.NTUP_SMWZ.r4644_p1517_p1328_p1329_tid01420926_00.PrgSkim.v12/
user.okepka.data12_8TeV.00213695.physics_Egamma.NTUP_SMWZ.f482_m1250_p1328_p1329_tid01128182_00.PrgSkim.v12/
user.okepka.data12_8TeV.00203602.physics_Egamma.NTUP_SMWZ.r4065_p1278_p1328_p1329_tid01122088_00.PrgSkim.v12/
user.okepka.data12_8TeV.00209629.physics_Egamma.NTUP_SMWZ.r4065_p1278_p1328_p1329_tid01122514_00.PrgSkim.v12/
user.okepka.data12_8TeV.00208354.physics_Egamma.NTUP_SMWZ.r4065_p1278_p1328_p1329_tid01122385_00.PrgSkim.v12/
user.okepka.data12_8TeV.00212993.physics_Egamma.NTUP_SMWZ.r4065_p1278_p1328_p1329_tid01122643_00.PrgSkim.v12/
user.okepka.data12_8TeV.00203719.physics_Egamma.NTUP_SMWZ.r4065_p1278_p1328_p1329_tid01122092_00.PrgSkim.v12/
user.okepka.data12_8TeV.00209864.physics_Egamma.NTUP_SMWZ.r4065_p1278_p1328_p1329_tid01122519_00.PrgSkim.v12/
user.okepka.data12_8TeV.00209214.physics_Egamma.NTUP_SMWZ.r4065_p1278_p1328_p1329_tid01122504_00.PrgSkim.v12/
user.okepka.data12_8TeV.00209161.physics_Egamma.NTUP_SMWZ.r4065_p1278_p1328_p1329_tid01122502_00.PrgSkim.v12/
user.okepka.data12_8TeV.00209265.physics_Egamma.NTUP_SMWZ.r4065_p1278_p1328_p1329_tid01122506_00.PrgSkim.v12/
user.okepka.data12_8TeV.00213204.physics_Egamma.NTUP_SMWZ.r4065_p1278_p1328_p1329_tid01122650_00.PrgSkim.v12/
