# Exclusive samples
mc12_8TeV.185504.Herwigpp_QED_WW_LeptonFilter.merge.NTUP_SMWZ.e2710_a220_a205_r4540_p1328_tid01455521_00                 185504  0.004356 1      0.87115 H++          AFII   (StandardModel-WW-Exclusive)   500000
mc12_8TeV.185334.Herwigpp_QED_ggTOee_20M60_LeptonFilter.merge.NTUP_SMWZ.e2457_a220_a171_r3549_p1328_tid01421102_00       185334  27.698  1       0.04175 H++          AFII   (dileptons-Exclusive)   500000 
mc12_8TeV.185335.Herwigpp_QED_ggTOee_60M200_LeptonFilter.merge.NTUP_SMWZ.e2457_a220_a171_r3549_p1328_tid01421103_00      185335  1.447   1       0.14569 H++          AFII   (dileptons-Exclusive)   200000 
mc12_8TeV.185336.Herwigpp_QED_ggTOee_200M_LeptonFilter.merge.NTUP_SMWZ.e2457_a220_a171_r3549_p1328_tid01421104_00        185336  0.038   1       0.22015 H++          AFII   (dileptons-Exclusive)   100000 
mc12_8TeV.185337.Herwigpp_QED_ggTOmumu_20M60_LeptonFilter.merge.NTUP_SMWZ.e2457_a220_a171_r3549_p1328_tid01421105_00     185337  13.537  1       0.08702 H++          AFII   (dileptons-Exclusive)   500000 
mc12_8TeV.185338.Herwigpp_QED_ggTOmumu_60M200_LeptonFilter.merge.NTUP_SMWZ.e2457_a220_a171_r3549_p1328_tid01421107_00    185338  0.788   1       0.26489 H++          AFII   (dileptons-Exclusive)   200000 
mc12_8TeV.185339.Herwigpp_QED_ggTOmumu_200M_LeptonFilter.merge.NTUP_SMWZ.e2457_a220_a171_r3549_p1328_tid01421108_00      185339  0.023   1       0.36673 H++          AFII   (dileptons-Exclusive)   100000 
mc12_8TeV.185340.Herwigpp_QED_ggTOtautau_20M60_LeptonFilter.merge.NTUP_SMWZ.e2457_a220_a171_r3549_p1328_tid01421109_00   185340  6.170   1       0.00922 H++          AFII   (dileptons-Exclusive)   100000 
mc12_8TeV.185341.Herwigpp_QED_ggTOtautau_60M200_LeptonFilter.merge.NTUP_SMWZ.e2457_a220_a171_r3549_p1328_tid01421110_00  185341  0.434   1       0.08806 H++          AFII   (dileptons-Exclusive)   100000 
mc12_8TeV.185342.Herwigpp_QED_ggTOtautau_200M_LeptonFilter.merge.NTUP_SMWZ.e2457_a220_a171_r3549_p1328_tid01421111_00    185342  0.014   1       0.17315 H++          AFII   (dileptons-Exclusive)   100000 
mc12_8TeV.185343.LPair_BSY_SDiss_ggTOee_20M60_LeptonFilter.merge.NTUP_SMWZ.e2457_a220_a171_r3549_p1328_tid01421112_00    185343  5.601   1       1       LPAIR        AFII   (dileptons-Double-Dissociation) 500000 
mc12_8TeV.185344.LPair_BSY_SDiss_ggTOee_60M200_LeptonFilter.merge.NTUP_SMWZ.e2457_a220_a171_r3549_p1328_tid01421113_00   185344  0.946   1       1       LPAIR        AFII   (dileptons-Single-Dissociation) 200000 
mc12_8TeV.185345.LPair_BSY_SDiss_ggTOee_200M_LeptonFilter.merge.NTUP_SMWZ.e2457_a220_a171_r3549_p1328_tid01421114_00     185345  0.042   1       1       LPAIR        AFII   (dileptons-Single-Dissociation) 100000 
mc12_8TeV.185346.LPair_BSY_SDiss_ggTOmumu_20M60_LeptonFilter.merge.NTUP_SMWZ.e2457_a220_a171_r3549_p1328_tid01421115_00  185346  5.042   1       1       LPAIR        AFII   (dileptons-Single-Dissociation) 500000 
mc12_8TeV.185347.LPair_BSY_SDiss_ggTOmumu_60M200_LeptonFilter.merge.NTUP_SMWZ.e2457_a220_a171_r3549_p1328_tid01421117_00 185347  0.873   1       1       LPAIR        AFII   (dileptons-Single-Dissociation) 200000 
mc12_8TeV.185348.LPair_BSY_SDiss_ggTOmumu_200M_LeptonFilter.merge.NTUP_SMWZ.e2457_a220_a171_r3549_p1328_tid01421118_00   185348  0.040   1       1       LPAIR        AFII   (dileptons-Single-Dissociation) 100000 
mc12_8TeV.185349.LPair_BSY_DDiss_ggTOee_20M60_LeptonFilter.merge.NTUP_SMWZ.e2457_a220_a171_r3549_p1328_tid01421119_00    185349  3.146   1       1       LPAIR        AFII   (dileptons-Single-Dissociation) 500000 
mc12_8TeV.185350.LPair_BSY_DDiss_ggTOee_60M200_LeptonFilter.merge.NTUP_SMWZ.e2457_a220_a171_r3549_p1328_tid01421120_00   185350  0.630   1       1       LPAIR        AFII   (dileptons-Double-Dissociation) 200000 
mc12_8TeV.185351.LPair_BSY_DDiss_ggTOee_200M_LeptonFilter.merge.NTUP_SMWZ.e2457_a220_a171_r3549_p1328_tid01421121_00     185351  0.037   1       1       LPAIR        AFII   (dileptons-Double-Dissociation) 100000 
mc12_8TeV.185352.LPair_BSY_DDiss_ggTOmumu_20M60_LeptonFilter.merge.NTUP_SMWZ.e2634_a220_a171_r3549_p1328_tid01426954_00  185352  3.165   1       1       LPAIR        AFII   (dilepton-DD)                   500000 
mc12_8TeV.185353.LPair_BSY_DDiss_ggTOmumu_60M200_LeptonFilter.merge.NTUP_SMWZ.e2634_a220_a171_r3549_p1328_tid01426953_00 185353  0.636   1       1       LPAIR        AFII   (dilepton-DD)                   200000
mc12_8TeV.185354.LPair_BSY_DDiss_ggTOmumu_200M_LeptonFilter.merge.NTUP_SMWZ.e2457_a220_a171_r3549_p1328_tid01421122_00   185354  0.037   1       1       LPAIR        AFII   (dileptons-Double-Dissociation) 100000
mc12_8TeV.185603.Pythia8_MRST2004QED_SDiss_ggTOtautau_20M60.merge.NTUP_SMWZ.e2874_a220_a205_r4540_p1328/                 185603  9.524   1       1       Pythia8      AFII   (dilepton-SD)                   500000  
mc12_8TeV.185604.Pythia8_MRST2004QED_SDiss_ggTOtautau_60M200.merge.NTUP_SMWZ.e2874_a220_a205_r4540_p1328/                185604  1.3642  1       1       Pythia8      AFII   (dilepton-SD)                   200000
mc12_8TeV.185605.Pythia8_MRST2004QED_SDiss_ggTOtautau_200M.merge.NTUP_SMWZ.e2874_a220_a205_r4540_p1328/                  185605  0.0646  1       1       Pythia8      AFII   (dilepton-SD)                   100000
#
# Exclusive Higgs
mc12_8TeV.161005.PowhegPythia8_AU2CT10_ggH125_WW2lep_EF_15_5.merge.NTUP_SMWZ.e1285_s1469_s1470_r4485_r4540_p1328/    161005    0.440563    1    0.49105    PowHeg+Pythia8    Full    ggF_H->WW->leplep_2l_EF    2499994    
#
# WW
mc12_8TeV.126928.PowhegPythia8_AU2CT10_WpWm_ee.merge.NTUP_SMWZ.e1280_s1469_s1470_r3752_r3549_p1328/        126928  0.62    1       1       PowHeg+Pythia8  Full   qq->WpWm->eenunu(CT10)  599700
mc12_8TeV.126929.PowhegPythia8_AU2CT10_WpWm_me.merge.NTUP_SMWZ.e1280_s1469_s1470_r3542_r3549_p1328/        126929  0.62    1       1       PowHeg+Pythia8  Full   qq->WpWm->muenunu(CT10) 600000 
mc12_8TeV.126930.PowhegPythia8_AU2CT10_WpWm_te.merge.NTUP_SMWZ.e2348_s1581_s1586_r4485_r4540_p1328/        126930  0.62    1       1       PowHeg+Pythia8  Full   qq->WpWm->tauenunu(CT10)    600000   
mc12_8TeV.126931.PowhegPythia8_AU2CT10_WpWm_em.merge.NTUP_SMWZ.e1280_s1469_s1470_r3542_r3549_p1328/        126931  0.62    1       1       PowHeg+Pythia8  Full   qq->WpWm->emnunu(CT10)  599999 
mc12_8TeV.126932.PowhegPythia8_AU2CT10_WpWm_mm.merge.NTUP_SMWZ.e1280_s1469_s1470_r3542_r3549_p1328/        126932  0.62    1       1       PowHeg+Pythia8  Full   qq->WpWm->mumununu(CT10)        600000 
mc12_8TeV.126933.PowhegPythia8_AU2CT10_WpWm_tm.merge.NTUP_SMWZ.e2348_s1581_s1586_r4485_r4540_p1328/        126933  0.62    1       1       PowHeg+Pythia8  Full   qq->WpWm->taumununu(CT10)    599798   
mc12_8TeV.126934.PowhegPythia8_AU2CT10_WpWm_et.merge.NTUP_SMWZ.e1280_s1469_s1470_r3542_r3549_p1328/        126934  0.62    1       1       PowHeg+Pythia8  Full   qq->WpWm->etaununu(CT10)        599995 
mc12_8TeV.126935.PowhegPythia8_AU2CT10_WpWm_mt.merge.NTUP_SMWZ.e2348_s1581_s1586_r4485_r4540_p1328/        126935  0.62    1       1       PowHeg+Pythia8  Full   qq->WpWm->mutaununu(CT10)    599999   
mc12_8TeV.126936.PowhegPythia8_AU2CT10_WpWm_tt.merge.NTUP_SMWZ.e2348_s1581_s1586_r4485_r4540_p1328/        126936  0.62    1       1       PowHeg+Pythia8  Full   qq->WpWm->tautaununu(CT10)    600000
mc12_8TeV.169471.gg2wwJimmy_AUET2CT10_WpWmenuenu.merge.NTUP_SMWZ.e1723_s1581_s1586_r3658_r3549_p1328/      169471  0.017   1       1       gg2WW  Full  gg->WpWm->eenunu(CT10)  30000   new gg2ww
mc12_8TeV.169472.gg2wwJimmy_AUET2CT10_WpWmenumunu.merge.NTUP_SMWZ.e1723_s1581_s1586_r3658_r3549_p1328/     169472  0.017   1       1       gg2WW  Full  gg->WpWm->emununu(CT10) 30000   new gg2ww
mc12_8TeV.169473.gg2wwJimmy_AUET2CT10_WpWmenutaunu.merge.NTUP_SMWZ.e1723_s1581_s1586_r3658_r3549_p1328/    169473  0.017   1       1       gg2WW  Full  gg->WpWm->etaununu(CT10)        30000   new gg2ww
mc12_8TeV.169474.gg2wwJimmy_AUET2CT10_WpWmmunumunu.merge.NTUP_SMWZ.e1723_s1581_s1586_r3658_r3549_p1328/    169474  0.017   1       1       gg2WW  Full  gg->WpWm->mumununu(CT10)        30000   new gg2ww
mc12_8TeV.169475.gg2wwJimmy_AUET2CT10_WpWmmunuenu.merge.NTUP_SMWZ.e1723_s1581_s1586_r3658_r3549_p1328/     169475  0.017   1       1       gg2WW  Full  gg->WpWm->muenunu(CT10) 30000   new gg2ww
mc12_8TeV.169476.gg2wwJimmy_AUET2CT10_WpWmmunutaunu.merge.NTUP_SMWZ.e1723_s1581_s1586_r3658_r3549_p1328/   169476  0.017   1       1       gg2WW  Full  gg->WpWm->mutaununu(CT10)       30000   new gg2ww
mc12_8TeV.169477.gg2wwJimmy_AUET2CT10_WpWmtaunutaunu.merge.NTUP_SMWZ.e1723_s1581_s1586_r3658_r3549_p1328/  169477  0.017   1       1       gg2WW  Full  gg->WpWm->tautaununu(CT10)      30000   new gg2ww
mc12_8TeV.169478.gg2wwJimmy_AUET2CT10_WpWmtaunuenu.merge.NTUP_SMWZ.e1723_s1581_s1586_r3658_r3549_p1328/    169478  0.017   1       1       gg2WW  Full  gg->WpWm->tauenunu(CT10)        30000   new gg2ww
mc12_8TeV.169479.gg2wwJimmy_AUET2CT10_WpWmtaunumunu.merge.NTUP_SMWZ.e1723_s1581_s1586_r3658_r3549_p1328/   169479  0.017   1       1       gg2WW  Full  gg->WpWm->taumununu(CT10)       30000   new gg2ww
#
# WZ
mc12_8TeV.129477.PowhegPythia8_AU2CT10_WZ_Wm11Z11_mll0p250d0_2LeptonFilter5.merge.NTUP_SMWZ.e1300_s1469_s1470_r3542_r3549_p1328/       129477    1.407   1    0.29456    PowHeg+Pythia8   Full   W+Z->enuee(CT10)_mll>0.5GeV         190000 
mc12_8TeV.129478.PowhegPythia8_AU2CT10_WZ_Wm11Z13_mll0p4614d0_2LeptonFilter5.merge.NTUP_SMWZ.e1300_s1469_s1470_r3542_r3549_p1328/      129478    0.9382  1    0.35211    PowHeg+Pythia8   Full   W+Z->enumumu(CT10)_mll>0.5GeV       190000 
mc12_8TeV.129479.PowhegPythia8_AU2CT10_WZ_Wm11Z15_mll3p804d0_2LeptonFilter5.merge.NTUP_SMWZ.e2372_s1469_s1470_r3542_r3549_p1328/       129479    0.1746  1    0.16682    PowHeg+Pythia8   Full   W+Z->enutautau(CT10)_mll>0.5GeV     75999  
mc12_8TeV.129480.PowhegPythia8_AU2CT10_WZ_Wm13Z11_mll0p250d0_2LeptonFilter5.merge.NTUP_SMWZ.e1300_s1469_s1470_r3542_r3549_p1328/       129480    1.399   1    0.29351    PowHeg+Pythia8   Full   W+Z->munuee(CT10)_mll>0.5GeV        189999 
mc12_8TeV.129481.PowhegPythia8_AU2CT10_WZ_Wm13Z13_mll0p4614d0_2LeptonFilter5.merge.NTUP_SMWZ.e1300_s1469_s1470_r3542_r3549_p1328/      129481    0.9537  1    0.35132    PowHeg+Pythia8   Full   W+Z->munumumu(CT10)_mll>0.5GeV      190000 
mc12_8TeV.129482.PowhegPythia8_AU2CT10_WZ_Wm13Z15_mll3p804d0_2LeptonFilter5.merge.NTUP_SMWZ.e2372_s1469_s1470_r3542_r3549_p1328/       129482    0.1746  1    0.16863    PowHeg+Pythia8   Full   W+Z->munutautau(CT10)_mll>0.5GeV    76000  
mc12_8TeV.129483.PowhegPythia8_AU2CT10_WZ_Wm15Z11_mll0p250d0_2LeptonFilter5.merge.NTUP_SMWZ.e2372_s1469_s1470_r3542_r3549_p1328/       129483    1.399   1    0.14289    PowHeg+Pythia8   Full   W+Z->taunuee(CT10)_mll>0.5GeV       76000  
mc12_8TeV.129484.PowhegPythia8_AU2CT10_WZ_Wm15Z13_mll0p4614d0_2LeptonFilter5.merge.NTUP_SMWZ.e2372_s1469_s1470_r3542_r3549_p1328/      129484    0.9382  1    0.18256    PowHeg+Pythia8   Full   W+Z->taunumumu(CT10)_mll>0.5GeV     76000  
mc12_8TeV.129485.PowhegPythia8_AU2CT10_WZ_Wm15Z15_mll3p804d0_2LeptonFilter5.merge.NTUP_SMWZ.e2372_s1469_s1470_r3542_r3549_p1328/       129485    0.1719  1    0.058517   PowHeg+Pythia8   Full   W+Z->taunutautau(CT10)_mll>0.5GeV   19000  
mc12_8TeV.129486.PowhegPythia8_AU2CT10_WZ_W11Z11_mll0p250d0_2LeptonFilter5.merge.NTUP_SMWZ.e1300_s1469_s1470_r3542_r3549_p1328/        129486    0.9795  1    0.29694    PowHeg+Pythia8   Full   W-Z->enuee(CT10)_mll>0.5GeV         189899 
mc12_8TeV.129487.PowhegPythia8_AU2CT10_WZ_W11Z13_mll0p4614d0_2LeptonFilter5.merge.NTUP_SMWZ.e1300_s1469_s1470_r3542_r3549_p1328/       129487    0.639   1    0.35302    PowHeg+Pythia8   Full   W-Z->enumumu(CT10)_mll>0.5GeV       190000 
mc12_8TeV.129488.PowhegPythia8_AU2CT10_WZ_W11Z15_mll3p804d0_2LeptonFilter5.merge.NTUP_SMWZ.e2372_s1469_s1470_r3542_r3549_p1328/        129488    0.1125  1    0.15969    PowHeg+Pythia8   Full   W-Z->enutautau(CT10)_mll>0.5GeV     76000  
mc12_8TeV.129489.PowhegPythia8_AU2CT10_WZ_W13Z11_mll0p250d0_2LeptonFilter5.merge.NTUP_SMWZ.e1300_s1469_s1470_r3542_r3549_p1328/        129489    0.9359  1    0.29766    PowHeg+Pythia8   Full   W-Z->munuee(CT10)_mll>0.5GeV        190000 
mc12_8TeV.129490.PowhegPythia8_AU2CT10_WZ_W13Z13_mll0p4614d0_2LeptonFilter5.merge.NTUP_SMWZ.e1300_s1469_s1470_r3542_r3549_p1328/       129490    0.6488  1    0.35414    PowHeg+Pythia8   Full   W-Z->munumumu(CT10)_mll>0.5GeV      190000 
mc12_8TeV.129491.PowhegPythia8_AU2CT10_WZ_W13Z15_mll3p804d0_2LeptonFilter5.merge.NTUP_SMWZ.e2372_s1469_s1470_r3542_r3549_p1328/        129491    0.1125  1    0.16023    PowHeg+Pythia8   Full   W-Z->munutautau(CT10)_mll>0.5GeV    76000  
mc12_8TeV.129492.PowhegPythia8_AU2CT10_WZ_W15Z11_mll0p250d0_2LeptonFilter5.merge.NTUP_SMWZ.e2372_s1469_s1470_r3542_r3549_p1328/        129492    0.9359  1    0.14803    PowHeg+Pythia8   Full   W-Z->taunuee(CT10)_mll>0.5GeV       76000  
mc12_8TeV.129493.PowhegPythia8_AU2CT10_WZ_W15Z13_mll0p4614d0_2LeptonFilter5.merge.NTUP_SMWZ.e2372_s1469_s1470_r3542_r3549_p1328/       129493    0.639   1    0.18657    PowHeg+Pythia8   Full   W-Z->taunumumu(CT10)_mll>0.5GeV     75999  
mc12_8TeV.129494.PowhegPythia8_AU2CT10_WZ_W15Z15_mll3p804d0_2LeptonFilter5.merge.NTUP_SMWZ.e2372_s1469_s1470_r3542_r3549_p1328/        129494    0.1107  1    0.056651   PowHeg+Pythia8   Full   W-Z->taunutautau(CT10)_mll>0.5GeV   19000  
#
# ZZ
mc12_8TeV.126937.PowhegPythia8_AU2CT10_ZZ_4e_mll4_2pt5.merge.NTUP_SMWZ.e1280_s1469_s1470_r3542_r3549_p1328/        126937    0.0769  1    0.9077   PowHeg+Pythia8   Full  ZZ->4e(mll>4GeV)(CT10)    1099997
mc12_8TeV.126938.PowhegPythia8_AU2CT10_ZZ_2e2mu_mll4_2pt5.merge.NTUP_SMWZ.e1280_s1469_s1470_r3752_r3549_p1328/     126938    0.1756  1    0.8279   PowHeg+Pythia8   Full  ZZ->2e2mu(mll>4GeV)(CT10)    1599696
mc12_8TeV.126939.PowhegPythia8_AU2CT10_ZZ_2e2tau_mll4_2pt5.merge.NTUP_SMWZ.e2372_s1469_s1470_r3542_r3549_p1328/    126939    0.1754  1    0.5824   PowHeg+Pythia8   Full  ZZ->2e2tau(mll>4GeV)(CT10)    1099798   
mc12_8TeV.126940.PowhegPythia8_AU2CT10_ZZ_4mu_mll4_2pt5.merge.NTUP_SMWZ.e1280_s1469_s1470_r3752_r3549_p1328/       126940    0.0768  1    0.91241  PowHeg+Pythia8   Full  ZZ->4mu(mll>4GeV)(CT10)    1099798
mc12_8TeV.126941.PowhegPythia8_AU2CT10_ZZ_2mu2tau_mll4_2pt5.merge.NTUP_SMWZ.e2372_s1469_s1470_r3542_r3549_p1328/   126941    0.1754  1    0.5873   PowHeg+Pythia8   Full  ZZ->2mu2tau(mll>4GeV)(CT10)    789899 
mc12_8TeV.126942.PowhegPythia8_AU2CT10_ZZ_4tau_mll4_2pt5.merge.NTUP_SMWZ.e2372_s1469_s1470_r3542_r3549_p1328/      126942    0.0769  1    0.106    PowHeg+Pythia8   Full  ZZ->4tau(mll>4GeV)(CT10)    299999
mc12_8TeV.126949.PowhegPythia8_AU2CT10_ZZllnunu_ee_mll4.merge.NTUP_SMWZ.e1280_s1469_s1470_r3752_r3549_p1328/       126949    0.168    1.0    1.0   Powheg  Full   ZZ->eenunu(mll>4GeV)(CT10      299400
mc12_8TeV.126950.PowhegPythia8_AU2CT10_ZZllnunu_mm_mll4.merge.NTUP_SMWZ.e1280_s1469_s1470_r3542_r3549_p1328/       126950    0.168    1.0    1.0   Powheg  Full   ZZ->mumununu(mll>4GeV)(CT10)   300000
mc12_8TeV.126951.PowhegPythia8_AU2CT10_ZZllnunu_tt_mll4.merge.NTUP_SMWZ.e2372_s1469_s1470_r3542_r3549_p1328/       126951    0.168    1.0    1.0   Powheg  Full   ZZ->tautaununu(mll>4GeV)(CT10) 299999
#
# Wgamma
mc12_8TeV.146436.AlpgenJimmy_AUET2CTEQ6L1_WgammaNp0_LeptonPhotonFilter.merge.NTUP_SMWZ.e1601_s1499_s1504_r3658_r3549_p1328/   146436    229.88    1.15     0.31372   Alpgen   Full   Wgamma+0p_LepPho_EF(CTEQ6L1)  14297460
mc12_8TeV.146437.AlpgenJimmy_AUET2CTEQ6L1_WgammaNp1_LeptonPhotonFilter.merge.NTUP_SMWZ.e1601_s1499_s1504_r3658_r3549_p1328/   146437    59.518    1.15     0.44871   Alpgen   Full   Wgamma+1p_LepPho_EF(CTEQ6L1)  5397486
mc12_8TeV.146438.AlpgenJimmy_AUET2CTEQ6L1_WgammaNp2_LeptonPhotonFilter.merge.NTUP_SMWZ.e1601_s1499_s1504_r3658_r3549_p1328/   146438    21.39     1.15     0.54461   Alpgen   Full   Wgamma+2p_LepPho_EF(CTEQ6L1)  2899787
mc12_8TeV.146439.AlpgenJimmy_AUET2CTEQ6L1_WgammaNp3_LeptonPhotonFilter.merge.NTUP_SMWZ.e1601_s1499_s1504_r3658_r3549_p1328/   146439    7.1203    1.15     0.62974   Alpgen   Full   Wgamma+3p_LepPho_EF(CTEQ6L1)  859796
mc12_8TeV.146434.AlpgenJimmy_AUET2CTEQ6L1_WgammaNp4.merge.NTUP_SMWZ.e1601_s1499_s1504_r3658_r3549_p1328/                      146434    2.1224    1.15     1         Alpgen   Full   Wgamma+4p(CTEQ6L1)            364999
mc12_8TeV.146435.AlpgenJimmy_AUET2CTEQ6L1_WgammaNp5.merge.NTUP_SMWZ.e1601_s1499_s1504_r3658_r3549_p1328/                      146435    0.46612   1.15     1         Alpgen   Full   Wgamma+5p(CTEQ6L1)            59999
#
# WgammaStar
mc12_8TeV.181452.Sherpa_CT10_Wgstaree_1p_lt7.merge.NTUP_SMWZ.e2225_s1581_s1586_r4485_r4540_p1328/      181452    10.17487      1.0      1.0   Sherpa   Full    Wgamma*->lnuee(mll<7GeV)(CT10)    2008998
mc12_8TeV.181453.Sherpa_CT10_Wgstarmumu_1p_lt7.merge.NTUP_SMWZ.e2225_s1581_s1586_r4485_r4540_p1328/    181453    2.53518       1.0      1.0   Sherpa   Full    Wgamma*->lnumumu(mll<7GeV)(CT10)  504996
mc12_8TeV.181454.Sherpa_CT10_Wgstartautau_1p_lt7.merge.NTUP_SMWZ.e2225_s1581_s1586_r4485_r4540_p1328/  181454    0.22830       1.0      1.0   Sherpa   Full    Wgamma*->lnutautau(mll<7GeV)(CT10)  50000
#
# W+Jets
mc12_8TeV.147025.AlpgenPythia_Auto_P2011C_WenuNp0.merge.NTUP_SMWZ.e1879_s1581_s1586_r3658_r3549_p1328/         147025    8037.1        1.19     1.0   AlpgenPythia  Full  Wjets  29484244     
mc12_8TeV.147026.AlpgenPythia_Auto_P2011C_WenuNp1.merge.NTUP_SMWZ.e1879_s1581_s1586_r3658_r3549_p1328/         147026    1579.2        1.19     1.0   AlpgenPythia  Full  Wjets  48295904
mc12_8TeV.147027.AlpgenPythia_Auto_P2011C_WenuNp2.merge.NTUP_SMWZ.e1879_s1581_s1586_r3658_r3549_p1328/         147027    477.2         1.19     1.0   AlpgenPythia  Full  Wjets  17569347 
mc12_8TeV.147028.AlpgenPythia_Auto_P2011C_WenuNp3.merge.NTUP_SMWZ.e1879_s1581_s1586_r3658_r3549_p1328/         147028    133.93        1.19     1.0   AlpgenPythia  Full  Wjets  4985287
mc12_8TeV.147029.AlpgenPythia_Auto_P2011C_WenuNp4.merge.NTUP_SMWZ.e1879_s1581_s1586_r3658_r3549_p1328/         147029    35.622        1.19     1.0   AlpgenPythia  Full  Wjets  2553792
mc12_8TeV.147030.AlpgenPythia_Auto_P2011C_WenuNp5incl.merge.NTUP_SMWZ.e1879_s1581_s1586_r3658_r3549_p1328/     147030    10.553        1.19     1.0   AlpgenPythia  Full  Wjets  799192
mc12_8TeV.147033.AlpgenPythia_Auto_P2011C_WmunuNp0.merge.NTUP_SMWZ.e1880_s1581_s1586_r3658_r3549_p1328/        147033    8040          1.19     1.0   AlpgenPythia  Full  Wjets  31955655
mc12_8TeV.147034.AlpgenPythia_Auto_P2011C_WmunuNp1.merge.NTUP_SMWZ.e1880_s1581_s1586_r3658_r3549_p1328/        147034    1580.3        1.19     1.0   AlpgenPythia  Full  Wjets  43787615
mc12_8TeV.147035.AlpgenPythia_Auto_P2011C_WmunuNp2.merge.NTUP_SMWZ.e1880_s1581_s1586_r3658_r3549_p1328/        147035    477.5         1.19     1.0   AlpgenPythia  Full  Wjets  17611454
mc12_8TeV.147036.AlpgenPythia_Auto_P2011C_WmunuNp3.merge.NTUP_SMWZ.e1880_s1581_s1586_r3658_r3549_p1328/        147036    133.94        1.19     1.0   AlpgenPythia  Full  Wjets  4986077
mc12_8TeV.147037.AlpgenPythia_Auto_P2011C_WmunuNp4.merge.NTUP_SMWZ.e1880_s1581_s1586_r3658_r3549_p1328/        147037    35.636        1.19     1.0   AlpgenPythia  Full  Wjets  2556595
mc12_8TeV.147038.AlpgenPythia_Auto_P2011C_WmunuNp5incl.merge.NTUP_SMWZ.e1880_s1581_s1586_r3658_r3549_p1328/    147038    10.571        1.19     1.0   AlpgenPythia  Full  Wjets  798898
mc12_8TeV.147041.AlpgenPythia_Auto_P2011C_WtaunuNp0.merge.NTUP_SMWZ.e1881_s1581_s1586_r3658_r3549_p1328/       147041    8035.8        1.19     1.0   AlpgenPythia  Full  Wjets  31992157
mc12_8TeV.147042.AlpgenPythia_Auto_P2011C_WtaunuNp1.merge.NTUP_SMWZ.e1881_s1581_s1586_r3658_r3549_p1328/       147042    1579.8        1.19     1.0   AlpgenPythia  Full  Wjets  48295178
mc12_8TeV.147043.AlpgenPythia_Auto_P2011C_WtaunuNp2.merge.NTUP_SMWZ.e1881_s1581_s1586_r3658_r3549_p1328/       147043    477.55        1.19     1.0   AlpgenPythia  Full  Wjets  17601943
mc12_8TeV.147044.AlpgenPythia_Auto_P2011C_WtaunuNp3.merge.NTUP_SMWZ.e1881_s1581_s1586_r3658_r3549_p1328/       147044    133.79        1.19     1.0   AlpgenPythia  Full  Wjets  4987982
mc12_8TeV.147045.AlpgenPythia_Auto_P2011C_WtaunuNp4.merge.NTUP_SMWZ.e1881_s1581_s1586_r3658_r3549_p1328/       147045    35.583        1.19     1.0   AlpgenPythia  Full  Wjets  2558295
mc12_8TeV.147046.AlpgenPythia_Auto_P2011C_WtaunuNp5incl.merge.NTUP_SMWZ.e1881_s1581_s1586_r3658_r3549_p1328/   147046    10.54         1.19     1.0   AlpgenPythia  Full  Wjets  799096
mc12_8TeV.200256.AlpgenPythia_Auto_P2011C_WbbNp0.merge.NTUP_SMWZ.e2384_s1581_s1586_r3658_r3549_p1328/          200256    55.682        1.19     1.0   AlpgenPythia  Full  Wjets  1599997
mc12_8TeV.200257.AlpgenPythia_Auto_P2011C_WbbNp1.merge.NTUP_SMWZ.e2384_s1581_s1586_r3658_r3549_p1328/          200257    45.243        1.19     1.0   AlpgenPythia  Full  Wjets  1398396
mc12_8TeV.200258.AlpgenPythia_Auto_P2011C_WbbNp2.merge.NTUP_SMWZ.e2384_s1581_s1586_r3658_r3549_p1328/          200258    23.246        1.19     1.0   AlpgenPythia  Full  Wjets  699398
mc12_8TeV.200259.AlpgenPythia_Auto_P2011C_WbbNp3incl.merge.NTUP_SMWZ.e2384_s1581_s1586_r3658_r3549_p1328/      200259    11.144        1.19     1.0   AlpgenPythia  Full  Wjets  398397
mc12_8TeV.200056.AlpgenPythia_Auto_P2011C_WcNp0.merge.NTUP_SMWZ.e2384_s1581_s1586_r3658_r3549_p1328/           200056    807.89        1.19     1.0   AlpgenPythia  Full  Wjets  22999046
mc12_8TeV.200057.AlpgenPythia_Auto_P2011C_WcNp1.merge.NTUP_SMWZ.e2384_s1581_s1586_r3658_r3549_p1328/           200057    267.61        1.19     1.0   AlpgenPythia  Full  Wjets  8198769
mc12_8TeV.200058.AlpgenPythia_Auto_P2011C_WcNp2.merge.NTUP_SMWZ.e2384_s1581_s1586_r3658_r3549_p1328/           200058    69.823        1.19     1.0   AlpgenPythia  Full  Wjets  2090290
mc12_8TeV.200059.AlpgenPythia_Auto_P2011C_WcNp3.merge.NTUP_SMWZ.e2384_s1581_s1586_r3658_r3549_p1328/           200059    20.547        1.19     1.0   AlpgenPythia  Full  Wjets  499498
mc12_8TeV.200060.AlpgenPythia_Auto_P2011C_WcNp4incl.merge.NTUP_SMWZ.e2384_s1581_s1586_r3658_r3549_p1328/       200060    4.3069        1.19     1.0   AlpgenPythia  Full  Wjets  199499
mc12_8TeV.200156.AlpgenPythia_Auto_P2011C_WccNp0.merge.NTUP_SMWZ.e2384_s1581_s1586_r3658_r3549_p1328/          200156    150.19        1.19     1.0   AlpgenPythia  Full  Wjets  4299592
mc12_8TeV.200157.AlpgenPythia_Auto_P2011C_WccNp1.merge.NTUP_SMWZ.e2384_s1581_s1586_r3658_r3549_p1328/          200157    132.68        1.19     1.0   AlpgenPythia  Full  Wjets  3987891
mc12_8TeV.200158.AlpgenPythia_Auto_P2011C_WccNp2.merge.NTUP_SMWZ.e2384_s1581_s1586_r3658_r3549_p1328/          200158    71.807        1.19     1.0   AlpgenPythia  Full  Wjets  2394394
mc12_8TeV.200159.AlpgenPythia_Auto_P2011C_WccNp3incl.merge.NTUP_SMWZ.e2384_s1581_s1586_r3658_r3549_p1328/      200159    30.264        1.19     1.0   AlpgenPythia  Full  Wjets  985295
#
# Z+Jets
mc12_8TeV.147105.AlpgenPythia_Auto_P2011C_ZeeNp0.merge.NTUP_SMWZ.e1879_s1581_s1586_r3658_r3549_p1328/          147105   718.890   1.18    1.0     AlpgenPythia   Full   Zjets-highMass   6298988
mc12_8TeV.147106.AlpgenPythia_Auto_P2011C_ZeeNp1.merge.NTUP_SMWZ.e1879_s1581_s1586_r3658_r3549_p1328/          147106   175.6     1.18    1.0     AlpgenPythia   Full   Zjets-highMass   8199476
mc12_8TeV.147107.AlpgenPythia_Auto_P2011C_ZeeNp2.merge.NTUP_SMWZ.e1879_s1581_s1586_r3658_r3549_p1328/          147107   58.849    1.18    1.0     AlpgenPythia   Full   Zjets-highMass   3175991
mc12_8TeV.147108.AlpgenPythia_Auto_P2011C_ZeeNp3.merge.NTUP_SMWZ.e1879_s1581_s1586_r3658_r3549_p1328/          147108   15.560    1.18    1.0     AlpgenPythia   Full   Zjets-highMass   894995 
mc12_8TeV.147109.AlpgenPythia_Auto_P2011C_ZeeNp4.merge.NTUP_SMWZ.e1879_s1581_s1586_r3658_r3549_p1328/          147109   3.932     1.18    1.0     AlpgenPythia   Full   Zjets-highMass   398597 
mc12_8TeV.147110.AlpgenPythia_Auto_P2011C_ZeeNp5incl.merge.NTUP_SMWZ.e1879_s1581_s1586_r3658_r3549_p1328/      147110   1.199     1.18    1.0     AlpgenPythia   Full   Zjets-highMass   229700 
mc12_8TeV.147113.AlpgenPythia_Auto_P2011C_ZmumuNp0.merge.NTUP_SMWZ.e1880_s1581_s1586_r3658_r3549_p1328/        147113   718.910   1.18    1.0     AlpgenPythia   Full   Zjets-highMass   6298796
mc12_8TeV.147114.AlpgenPythia_Auto_P2011C_ZmumuNp1.merge.NTUP_SMWZ.e1880_s1581_s1586_r3658_r3549_p1328/        147114   175.810   1.18    1.0     AlpgenPythia   Full   Zjets-highMass   8198384
mc12_8TeV.147115.AlpgenPythia_Auto_P2011C_ZmumuNp2.merge.NTUP_SMWZ.e1880_s1581_s1586_r3658_r3549_p1328/        147115   58.805    1.18    1.0     AlpgenPythia   Full   Zjets-highMass   3175488
mc12_8TeV.147116.AlpgenPythia_Auto_P2011C_ZmumuNp3.merge.NTUP_SMWZ.e1880_s1581_s1586_r3658_r3549_p1328/        147116   15.589    1.18    1.0     AlpgenPythia   Full   Zjets-highMass   894799 
mc12_8TeV.147117.AlpgenPythia_Auto_P2011C_ZmumuNp4.merge.NTUP_SMWZ.e1880_s1581_s1586_r3658_r3549_p1328/        147117   3.907     1.18    1.0     AlpgenPythia   Full   Zjets-highMass   398200 
mc12_8TeV.147118.AlpgenPythia_Auto_P2011C_ZmumuNp5incl.merge.NTUP_SMWZ.e1880_s1581_s1586_r3658_r3549_p1328/    147118   1.193     1.18    1.0     AlpgenPythia   Full   Zjets-highMass   229200 
mc12_8TeV.147121.AlpgenPythia_Auto_P2011C_ZtautauNp0.merge.NTUP_SMWZ.e1881_s1581_s1586_r3658_r3549_p1328/      147121   718.850   1.18    1.0     AlpgenPythia   Full   Zjets-highMass   19352765       
mc12_8TeV.147122.AlpgenPythia_Auto_P2011C_ZtautauNp1.merge.NTUP_SMWZ.e1881_s1581_s1586_r3658_r3549_p1328/      147122   175.830   1.18    1.0     AlpgenPythia   Full   Zjets-highMass   10679582       
mc12_8TeV.147123.AlpgenPythia_Auto_P2011C_ZtautauNp2.merge.NTUP_SMWZ.e1881_s1581_s1586_r3658_r3549_p1328/      147123   58.630    1.18    1.0     AlpgenPythia   Full   Zjets-highMass   3770893
mc12_8TeV.147124.AlpgenPythia_Auto_P2011C_ZtautauNp3.merge.NTUP_SMWZ.e1881_s1581_s1586_r3658_r3549_p1328/      147124   15.508    1.18    1.0     AlpgenPythia   Full   Zjets-highMass   1101994
mc12_8TeV.147125.AlpgenPythia_Auto_P2011C_ZtautauNp4.merge.NTUP_SMWZ.e1881_s1581_s1586_r3658_r3549_p1328/      147125   3.953     1.18    1.0     AlpgenPythia   Full   Zjets-highMass   398798 
mc12_8TeV.147126.AlpgenPythia_Auto_P2011C_ZtautauNp5incl.merge.NTUP_SMWZ.e1881_s1581_s1586_r3658_r3549_p1328/  147126   1.181     1.18    1.0     AlpgenPythia   Full   Zjets-highMass   229799
#
mc12_8TeV.146860.AlpgenJimmy_Auto_AUET2CTEQ6L1_Filtered_ZeeNp0Excl_Mll10to60.merge.NTUP_SMWZ.e1600_s1499_s1504_r3658_r3549_p1328/     146860  3477.9  1.19  0.010456   AlpgenHerwig   Full   Zjets-10M60  6889781
mc12_8TeV.146861.AlpgenJimmy_Auto_AUET2CTEQ6L1_Filtered_ZeeNp1Excl_Mll10to60.merge.NTUP_SMWZ.e1600_s1499_s1504_r3658_r3549_p1328/     146861  108.72  1.19  0.20383    AlpgenHerwig   Full   Zjets-10M60  4499189
mc12_8TeV.146862.AlpgenJimmy_Auto_AUET2CTEQ6L1_Filtered_ZeeNp2Excl_Mll10to60.merge.NTUP_SMWZ.e1600_s1499_s1504_r3658_r3549_p1328/     146862  52.837  1.19  0.13841    AlpgenHerwig   Full   Zjets-10M60  1315997
mc12_8TeV.146863.AlpgenJimmy_Auto_AUET2CTEQ6L1_Filtered_ZeeNp3Excl_Mll10to60.merge.NTUP_SMWZ.e1600_s1499_s1504_r3658_r3549_p1328/     146863  11.291  1.19  0.20806    AlpgenHerwig   Full   Zjets-10M60  440498
mc12_8TeV.146864.AlpgenJimmy_Auto_AUET2CTEQ6L1_Filtered_ZeeNp4Excl_Mll10to60.merge.NTUP_SMWZ.e1600_s1499_s1504_r3658_r3549_p1328/     146864  2.5852  1.19  0.25262    AlpgenHerwig   Full   Zjets-10M60  108609
mc12_8TeV.146870.AlpgenJimmy_Auto_AUET2CTEQ6L1_Filtered_ZmumuNp0Excl_Mll10to60.merge.NTUP_SMWZ.e1600_s1499_s1504_r3658_r3549_p1328/   146870  3477.7  1.19  0.010861   AlpgenHerwig   Full   Zjets-10M60  11677382
mc12_8TeV.146871.AlpgenJimmy_Auto_AUET2CTEQ6L1_Filtered_ZmumuNp1Excl_Mll10to60.merge.NTUP_SMWZ.e1600_s1499_s1504_r3658_r3549_p1328/   146871  108.74  1.19  0.21096    AlpgenHerwig   Full   Zjets-10M60  7397089
mc12_8TeV.146872.AlpgenJimmy_Auto_AUET2CTEQ6L1_Filtered_ZmumuNp2Excl_Mll10to60.merge.NTUP_SMWZ.e1600_s1499_s1504_r3658_r3549_p1328/   146872  52.814  1.19  0.14253    AlpgenHerwig   Full   Zjets-10M60  2176395
mc12_8TeV.146873.AlpgenJimmy_Auto_AUET2CTEQ6L1_Filtered_ZmumuNp3Excl_Mll10to60.merge.NTUP_SMWZ.e1600_s1499_s1504_r3658_r3549_p1328/   146873  11.299  1.19  0.21385    AlpgenHerwig   Full   Zjets-10M60  729298
mc12_8TeV.146874.AlpgenJimmy_Auto_AUET2CTEQ6L1_Filtered_ZmumuNp4Excl_Mll10to60.merge.NTUP_SMWZ.e1600_s1499_s1504_r3658_r3549_p1328/   146874  2.5793  1.19  0.25869    AlpgenHerwig   Full   Zjets-10M60  108570
mc12_8TeV.146880.AlpgenJimmy_Auto_AUET2CTEQ6L1_Filtered_ZtautauNp0Excl_Mll10to60.merge.NTUP_SMWZ.e1551_s1499_s1504_r3658_r3549_p1328/ 146880  3477.9  1.19  2.4348e-05 AlpgenHerwig   Full   Zjets-10M60  27790 
mc12_8TeV.146881.AlpgenJimmy_Auto_AUET2CTEQ6L1_Filtered_ZtautauNp1Excl_Mll10to60.merge.NTUP_SMWZ.e1551_s1499_s1504_r3658_r3549_p1328/ 146881  108.71  1.19  0.0013608  AlpgenHerwig   Full   Zjets-10M60  30000 
mc12_8TeV.146882.AlpgenJimmy_Auto_AUET2CTEQ6L1_Filtered_ZtautauNp2Excl_Mll10to60.merge.NTUP_SMWZ.e1551_s1499_s1504_r3658_r3549_p1328/ 146882  52.827  1.19  0.0017404  AlpgenHerwig   Full   Zjets-10M60  27650 
mc12_8TeV.146883.AlpgenJimmy_Auto_AUET2CTEQ6L1_Filtered_ZtautauNp3Excl_Mll10to60.merge.NTUP_SMWZ.e1551_s1499_s1504_r3658_r3549_p1328/ 146883  11.311  1.19  0.0038727  AlpgenHerwig   Full   Zjets-10M60  20360 
mc12_8TeV.146835.AlpgenJimmy_Auto_AUET2CTEQ6L1_ZeeNp5Incl_Mll10to60.merge.NTUP_SMWZ.e1600_s1499_s1504_r3658_r3549_p1328/              146835  0.69267 1.19  1.0        AlpgenHerwig   Full   Zjets-10M60  79619
mc12_8TeV.146845.AlpgenJimmy_Auto_AUET2CTEQ6L1_ZmumuNp5Incl_Mll10to60.merge.NTUP_SMWZ.e1600_s1499_s1504_r3658_r3549_p1328/            146845  0.69373 1.19  1.0        AlpgenHerwig   Full   Zjets-10M60  79740
mc12_8TeV.146854.AlpgenJimmy_Auto_AUET2CTEQ6L1_ZtautauNp4Excl_Mll10to60.merge.NTUP_SMWZ.e1348_s1469_s1470_r3542_r3549_p1328/          146854  2.592   1.19  1.0        AlpgenHerwig   Full   Zjets-10M60  365497
mc12_8TeV.146855.AlpgenJimmy_Auto_AUET2CTEQ6L1_ZtautauNp5Incl_Mll10to60.merge.NTUP_SMWZ.e1600_s1499_s1504_r3658_r3549_p1328/          146855  0.6929  1.19  1.0        AlpgenHerwig   Full   Zjets-10M60  120139
#
mc12_8TeV.107650.AlpgenJimmy_AUET2CTEQ6L1_ZeeNp0.merge.NTUP_SMWZ.e1571_s1499_s1504_r3658_r3549_p1328/        107650  711.77  1.23    1    Alpgen  Full  Zee+0p(60<M<2000GeV)(CTEQ6L1)       6608782
mc12_8TeV.107651.AlpgenJimmy_AUET2CTEQ6L1_ZeeNp1.merge.NTUP_SMWZ.e1571_s1499_s1504_r3658_r3549_p1328/        107651  155.17  1.23    1    Alpgen  Full  Zee+1p(60<M<2000GeV)(CTEQ6L1)       1335000
mc12_8TeV.107652.AlpgenJimmy_AUET2CTEQ6L1_ZeeNp2.merge.NTUP_SMWZ.e1571_s1499_s1504_r3658_r3549_p1328/        107652  48.745  1.23    1    Alpgen  Full  Zee+2p(60<M<2000GeV)(CTEQ6L1)       404499 
mc12_8TeV.107653.AlpgenJimmy_AUET2CTEQ6L1_ZeeNp3.merge.NTUP_SMWZ.e1571_s1499_s1504_r3658_r3549_p1328/        107653  14.225  1.23    1    Alpgen  Full  Zee+3p(60<M<2000GeV)(CTEQ6L1)       110000 
mc12_8TeV.107654.AlpgenJimmy_AUET2CTEQ6L1_ZeeNp4.merge.NTUP_SMWZ.e1571_s1499_s1504_r3658_r3549_p1328/        107654  3.7595  1.23    1    Alpgen  Full  Zee+4p(60<M<2000GeV)(CTEQ6L1)       30000   
mc12_8TeV.107655.AlpgenJimmy_AUET2CTEQ6L1_ZeeNp5.merge.NTUP_SMWZ.e1571_s1499_s1504_r3658_r3549_p1328/        107655  1.0945  1.23    1    Alpgen  Full  Zee+5p(60<M<2000GeV)(CTEQ6L1)       10000   
mc12_8TeV.107660.AlpgenJimmy_AUET2CTEQ6L1_ZmumuNp0.merge.NTUP_SMWZ.e1571_s1499_s1504_r3658_r3549_p1328/      107660  712.11  1.23    1    Alpgen  Full  Zmumu+0p(60<M<2000GeV)(CTEQ6L1)     6619489
mc12_8TeV.107661.AlpgenJimmy_AUET2CTEQ6L1_ZmumuNp1.merge.NTUP_SMWZ.e1571_s1499_s1504_r3658_r3549_p1328/      107661  154.77  1.23    1    Alpgen  Full  Zmumu+1p(60<M<2000GeV)(CTEQ6L1)     1334706
mc12_8TeV.107662.AlpgenJimmy_AUET2CTEQ6L1_ZmumuNp2.merge.NTUP_SMWZ.e1571_s1499_s1504_r3658_r3549_p1328/      107662  48.912  1.23    1    Alpgen  Full  Zmumu+2p(60<M<2000GeV)(CTEQ6L1)     404997 
mc12_8TeV.107663.AlpgenJimmy_AUET2CTEQ6L1_ZmumuNp3.merge.NTUP_SMWZ.e1571_s1499_s1504_r3658_r3549_p1328/      107663  14.226  1.23    1    Alpgen  Full  Zmumu+3p(60<M<2000GeV)(CTEQ6L1)     110000 
mc12_8TeV.107664.AlpgenJimmy_AUET2CTEQ6L1_ZmumuNp4.merge.NTUP_SMWZ.e1571_s1499_s1504_r3658_r3549_p1328/      107664  3.7838  1.23    1    Alpgen  Full  Zmumu+4p(60<M<2000GeV)(CTEQ6L1)     30000   
mc12_8TeV.107665.AlpgenJimmy_AUET2CTEQ6L1_ZmumuNp5.merge.NTUP_SMWZ.e1571_s1499_s1504_r3658_r3549_p1328/      107665  1.1148  1.23    1    Alpgen  Full  Zmumu+5p(60<M<2000GeV)(CTEQ6L1)     10000   
mc12_8TeV.107670.AlpgenJimmy_AUET2CTEQ6L1_ZtautauNp0.merge.NTUP_SMWZ.e1571_s1499_s1504_r3658_r3549_p1328/    107670  711.81  1.23    1    Alpgen  Full  Ztautau+0p(60<M<2000GeV)(CTEQ6L1)   6619683
mc12_8TeV.107671.AlpgenJimmy_AUET2CTEQ6L1_ZtautauNp1.merge.NTUP_SMWZ.e1571_s1499_s1504_r3658_r3549_p1328/    107671  155.13  1.23    1    Alpgen  Full  Ztautau+1p(60<M<2000GeV)(CTEQ6L1)   1334996
mc12_8TeV.107672.AlpgenJimmy_AUET2CTEQ6L1_ZtautauNp2.merge.NTUP_SMWZ.e1571_s1499_s1504_r3658_r3549_p1328/    107672  48.804  1.23    1    Alpgen  Full  Ztautau+2p(60<M<2000GeV)(CTEQ6L1)   404997
mc12_8TeV.107673.AlpgenJimmy_AUET2CTEQ6L1_ZtautauNp3.merge.NTUP_SMWZ.e1571_s1499_s1504_r3658_r3549_p1328/    107673  14.16   1.23    1    Alpgen  Full  Ztautau+3p(60<M<2000GeV)(CTEQ6L1)   110000
mc12_8TeV.107674.AlpgenJimmy_AUET2CTEQ6L1_ZtautauNp4.merge.NTUP_SMWZ.e1571_s1499_s1504_r3658_r3549_p1328/    107674  3.7744  1.23    1    Alpgen  Full  Ztautau+4p(60<M<2000GeV)(CTEQ6L1)   30000
mc12_8TeV.107675.AlpgenJimmy_AUET2CTEQ6L1_ZtautauNp5.merge.NTUP_SMWZ.e1571_s1499_s1504_r3658_r3549_p1328/    107675  1.1163  1.23    1    Alpgen  Full  Ztautau+5p(60<M<2000GeV)(CTEQ6L1)   10000
#
mc12_8TeV.178354.AlpgenPythia_P2011C_ZeeNp0Excl_Mll10to40_2LeptonFilter5.merge.NTUP_SMWZ.e2373_s1581_s1586_r4485_r4540_p1328/        178354  3.4103e3    1.18    0.174       AlpgenPythia   Full   Zjets   5594990
mc12_8TeV.178355.AlpgenPythia_P2011C_ZeeNp1Excl_Mll10to40_2LeptonFilter5.merge.NTUP_SMWZ.e2371_s1581_s1586_r4485_r4540_p1328/        178355  1.1207e2    1.18    0.38652     AlpgenPythia   Full   Zjets   2299897
mc12_8TeV.178356.AlpgenPythia_P2011C_ZeeNp2Excl_Mll10to40_2LeptonFilter5.merge.NTUP_SMWZ.e2371_s1581_s1586_r4485_r4540_p1328/        178356  6.4854e1    1.18    0.32589     AlpgenPythia   Full   Zjets   3303492
mc12_8TeV.178357.AlpgenPythia_P2011C_ZeeNp3Excl_Mll10to40_2LeptonFilter5.merge.NTUP_SMWZ.e2371_s1581_s1586_r4485_r4540_p1328/        178357  1.2998e1    1.18    0.37537     AlpgenPythia   Full   Zjets   231000 
mc12_8TeV.178359.AlpgenPythia_P2011C_ZmumuNp0Excl_Mll10to40_2LeptonFilter5.merge.NTUP_SMWZ.e2373_s1581_s1586_r4485_r4540_p1328/      178359  3.4103e3    1.18    0.18052     AlpgenPythia   Full   Zjets   5559193
mc12_8TeV.178360.AlpgenPythia_P2011C_ZmumuNp1Excl_Mll10to40_2LeptonFilter5.merge.NTUP_SMWZ.e2371_s1581_s1586_r4485_r4540_p1328/      178360  1.1209e2    1.18    0.39347     AlpgenPythia   Full   Zjets   1949697
mc12_8TeV.178361.AlpgenPythia_P2011C_ZmumuNp2Excl_Mll10to40_2LeptonFilter5.merge.NTUP_SMWZ.e2371_s1581_s1586_r4485_r4540_p1328/      178361  6.4821e1    1.18    0.33265     AlpgenPythia   Full   Zjets   3306093
mc12_8TeV.178362.AlpgenPythia_P2011C_ZmumuNp3Excl_Mll10to40_2LeptonFilter5.merge.NTUP_SMWZ.e2371_s1581_s1586_r4485_r4540_p1328/      178362  1.2983e1    1.18    0.38074     AlpgenPythia   Full   Zjets   230748 
mc12_8TeV.178364.AlpgenPythia_P2011C_ZtautauNp0Excl_Mll10to40_2LeptonFilter5.merge.NTUP_SMWZ.e2373_s1581_s1586_r4485_r4540_p1328/    178364  3.4104e3    1.18    0.0049028   AlpgenPythia   Full   Zjets   350000 
mc12_8TeV.178365.AlpgenPythia_P2011C_ZtautauNp1Excl_Mll10to40_2LeptonFilter5.merge.NTUP_SMWZ.e2371_s1581_s1586_r4485_r4540_p1328/    178365  1.1207e2    1.18    0.063976    AlpgenPythia   Full   Zjets   239999 
mc12_8TeV.178366.AlpgenPythia_P2011C_ZtautauNp2Excl_Mll10to40_2LeptonFilter5.merge.NTUP_SMWZ.e2371_s1581_s1586_r4485_r4540_p1328/    178366  6.4842e1    1.18    0.052245    AlpgenPythia   Full   Zjets   301299 
mc12_8TeV.178367.AlpgenPythia_P2011C_ZtautauNp3Excl_Mll10to40_2LeptonFilter5.merge.NTUP_SMWZ.e2371_s1581_s1586_r4485_r4540_p1328/    178367  1.3004e1    1.18    0.0864553   AlpgenPythia   Full   Zjets   53180   
mc12_8TeV.178369.AlpgenPythia_P2011C_ZeeNp0Excl_Mll40to60_2LeptonFilter5.merge.NTUP_SMWZ.e2373_s1581_s1586_r4485_r4540_p1328/        178369  6.6401e1    1.18    0.46394     AlpgenPythia   Full   Zjets   4338894
mc12_8TeV.178370.AlpgenPythia_P2011C_ZeeNp1Excl_Mll40to60_2LeptonFilter5.merge.NTUP_SMWZ.e2371_s1581_s1586_r4485_r4540_p1328/        178370  9.3068      1.18    0.57860     AlpgenPythia   Full   Zjets   779998 
mc12_8TeV.178371.AlpgenPythia_P2011C_ZeeNp2Excl_Mll40to60_2LeptonFilter5.merge.NTUP_SMWZ.e2371_s1581_s1586_r4485_r4540_p1328/        178371  3.2293      1.18    0.58860     AlpgenPythia   Full   Zjets   769998 
mc12_8TeV.178372.AlpgenPythia_P2011C_ZeeNp3Excl_Mll40to60_2LeptonFilter5.merge.NTUP_SMWZ.e2371_s1581_s1586_r4485_r4540_p1328/        178372  0.77993     1.18    0.61887     AlpgenPythia   Full   Zjets   298998 
mc12_8TeV.178374.AlpgenPythia_P2011C_ZmumuNp0Excl_Mll40to60_2LeptonFilter5.merge.NTUP_SMWZ.e2373_s1581_s1586_r4485_r4540_p1328/      178374  6.6401e1    1.18    0.46394     AlpgenPythia   Full   Zjets   4799191
mc12_8TeV.178375.AlpgenPythia_P2011C_ZmumuNp1Excl_Mll40to60_2LeptonFilter5.merge.NTUP_SMWZ.e2371_s1581_s1586_r4485_r4540_p1328/      178375  9.3122      1.18    0.58296     AlpgenPythia   Full   Zjets   779899 
mc12_8TeV.178376.AlpgenPythia_P2011C_ZmumuNp2Excl_Mll40to60_2LeptonFilter5.merge.NTUP_SMWZ.e2371_s1581_s1586_r4485_r4540_p1328/      178376  3.2217      1.18    0.59344     AlpgenPythia   Full   Zjets   769798 
mc12_8TeV.178377.AlpgenPythia_P2011C_ZmumuNp3Excl_Mll40to60_2LeptonFilter5.merge.NTUP_SMWZ.e2371_s1581_s1586_r4485_r4540_p1328/      178377  0.78029     1.18    0.62303     AlpgenPythia   Full   Zjets   299799 
mc12_8TeV.178379.AlpgenPythia_P2011C_ZtautauNp0Excl_Mll40to60_2LeptonFilter5.merge.NTUP_SMWZ.e2373_s1581_s1586_r4485_r4540_p1328/    178379  6.6407e1    1.18    0.18580     AlpgenPythia   Full   Zjets   4799889
mc12_8TeV.178380.AlpgenPythia_P2011C_ZtautauNp1Excl_Mll40to60_2LeptonFilter5.merge.NTUP_SMWZ.e2371_s1581_s1586_r4485_r4540_p1328/    178380  9.3100      1.18    0.23694     AlpgenPythia   Full   Zjets   879498 
mc12_8TeV.178381.AlpgenPythia_P2011C_ZtautauNp2Excl_Mll40to60_2LeptonFilter5.merge.NTUP_SMWZ.e2371_s1581_s1586_r4485_r4540_p1328/    178381  3.2270      1.18    0.25995     AlpgenPythia   Full   Zjets   871996 
mc12_8TeV.178382.AlpgenPythia_P2011C_ZtautauNp3Excl_Mll40to60_2LeptonFilter5.merge.NTUP_SMWZ.e2371_s1581_s1586_r4485_r4540_p1328/    178382  0.78144     1.18    0.29547     AlpgenPythia   Full   Zjets   304797
#
mc12_8TeV.147770.Sherpa_CT10_Zee.merge.NTUP_SMWZ.e1434_s1499_s1504_r3658_r3549_p1328/           147770  1241.2  1    1    Sherpa(MENLOPS) Full  Z->ee(40GeV<M)          29993053        weighted events!!!
mc12_8TeV.147771.Sherpa_CT10_Zmumu.merge.NTUP_SMWZ.e1434_s1499_s1504_r3658_r3549_p1328/         147771  1241.2  1    1    Sherpa(MENLOPS) Full  Z->mumu(40GeV<M)        29989732        weighted events!!!
mc12_8TeV.147772.Sherpa_CT10_Ztautau.merge.NTUP_SMWZ.e1434_s1499_s1504_r3658_r3549_p1328/       147772  1241.2  1    1    Sherpa          Full  Z->tautau(40GeV<M)      14998212
#
mc12_8TeV.147806.PowhegPythia8_AU2CT10_Zee.merge.NTUP_SMWZ.e1169_s1469_s1470_r3573_r3549_p1328/        147806    1150.1    1    1    Powheg   Full   Z->ee(60GeV<M)(CT10)        999998   
mc12_8TeV.147807.PowhegPythia8_AU2CT10_Zmumu.merge.NTUP_SMWZ.e1169_s1469_s1470_r3752_r3549_p1328/      147807    1150.1    1    1    Powheg   Full   Z->mumu(60GeV<M)(CT10)      9988282
mc12_8TeV.147808.PowhegPythia8_AU2CT10_Ztautau.merge.NTUP_SMWZ.e2372_s1469_s1470_r3542_r3549_p1328/    147808    1150.1    1    1    Powheg   Full   Z->tautau(60GeV<M)(CT10)    4989788
#
# ttbar
mc12_8TeV.110001.McAtNloJimmy_CT10_ttbar_dilepton.merge.NTUP_SMWZ.e1576_s1499_s1504_r3658_r3549_p1328/                110001   252.89      1.   0.105        MC@NLO   Full   ttbar_dilepton     9988449
mc12_8TeV.105861.PowhegPythia_AUET2BCT10_ttbar_LeptonFilter.merge.NTUP_SMWZ.e1317_a159_a165_r3549_p1328/              105861   252.89      1.0   0.543        PowhegPythia  AFII  ttbar_lepton   29949464
# single top
mc12_8TeV.117360.AcerMCPythia_AUET2BCTEQ6L1_singletop_tchan_e.merge.NTUP_SMWZ.e1346_s1499_s1504_r3658_r3549_p1328/      117360    9.48          1        1       AcerMC   Full  tchan->e(CTEQ6L1)       299899 
mc12_8TeV.117361.AcerMCPythia_AUET2BCTEQ6L1_singletop_tchan_mu.merge.NTUP_SMWZ.e1346_s1499_s1504_r3658_r3549_p1328/     117361    9.48          1        1       AcerMC   Full  tchan->mu(CTEQ6L1)      300000 
mc12_8TeV.117362.AcerMCPythia_AUET2BCTEQ6L1_singletop_tchan_tau.merge.NTUP_SMWZ.e1346_s1499_s1504_r3658_r3549_p1328/    117362    9.48          1        1       AcerMC   Full  tchan->tau(CTEQ6L1)     293499
mc12_8TeV.108343.McAtNloJimmy_AUET2CT10_SingleTopSChanWenu.merge.NTUP_SMWZ.e1525_s1499_s1504_r3658_r3549_p1328/         108343    0.606         1.0      1.0     MC@NLO  Full   schan->e(CT10)    199997
mc12_8TeV.108344.McAtNloJimmy_AUET2CT10_SingleTopSChanWmunu.merge.NTUP_SMWZ.e1525_s1499_s1504_r3658_r3549_p1328/        108344    0.606         1.0      1.0     MC@NLO  Full   schan->mu(CT10)   200000
mc12_8TeV.108345.McAtNloJimmy_AUET2CT10_SingleTopSChanWtaunu.merge.NTUP_SMWZ.e1525_s1499_s1504_r3658_r3549_p1328/       108345    0.606         1.0      1.0     MC@NLO  Full   schan->tau(CT10)  199999
mc12_8TeV.108346.McAtNloJimmy_AUET2CT10_SingleTopWtChanIncl.merge.NTUP_SMWZ.e1525_s1499_s1504_r3658_r3549_p1328/        108346    20.67         1.082    1.0     MC@NLO  Full   Wt(CT10)          1999194
